{"componentChunkName":"component---packages-blog-core-src-templates-collection-tag-js","path":"/tag/innovation/page/2/","result":{"data":{"collectionInfo":{"id":"b4b9cf5a-6f28-5919-adb6-ee37314cec58","name":"#innovation","slug":"/tag/innovation/"},"posts":{"nodes":[{"__typename":"MdxArticleProxy","id":"bf868c87-684c-5f85-8cb4-f0d35848290a","title":"How to maintain a self-steering culture while scaling up","slug":"/how-to-maintain-a-self-steering-culture-while-scaling-up/","link":null,"excerpt":"Primo in altis pelle alumnae Lorem markdownum obvius in seque opus, est bicorni forte; laeva…","timeToRead":1,"featured":null,"thumbnailText":null,"date":"Invalid date","category":{"__typename":"CategoriesJson","id":"3334eb29-d55f-573d-9eae-08729772b4a8","name":"Innovation","slug":"/category/innovation/","color":null,"icon":"/static/35c6c4f7d744541f08be2bbd2770c8db/innovation.svg"},"author":{"__typename":"AuthorsJson","id":"6093709b-a119-5b0f-9743-9b9bb17a7b56","name":"Jane Smith","slug":"/author/jane-smith/","title":"Creative Designer","description":"Sed commodo, est quis maximus fermentum, massa ipsum euismod neque, in varius risus tellus quis lacus. Sed ac bibendum odio.","skills":["UI/UX","Javascript","Graphic Design"],"social":[{"name":"Github","url":"https://github.com/github"},{"name":"Twitter","url":"https://twitter.com/twitter"},{"name":"Website","url":"https://example.com"}],"thumbnail":{"__typename":"ImageSharp","regular":{"width":150,"height":150,"src":"/static/41bc1caf29080d62bd156256ffb0cd6a/97df7/jane-smith.png","srcSet":"/static/41bc1caf29080d62bd156256ffb0cd6a/97df7/jane-smith.png 1x,\n/static/41bc1caf29080d62bd156256ffb0cd6a/81b80/jane-smith.png 1.5x,\n/static/41bc1caf29080d62bd156256ffb0cd6a/bb938/jane-smith.png 2x"}}},"thumbnail":{"__typename":"ImageSharp","vertical":{"src":"/static/22ec140d8c11417aed83f52c77c5a5e2/8f7be/image.jpg","srcSet":"/static/22ec140d8c11417aed83f52c77c5a5e2/8f7be/image.jpg 1x,\n/static/22ec140d8c11417aed83f52c77c5a5e2/1af80/image.jpg 1.5x,\n/static/22ec140d8c11417aed83f52c77c5a5e2/1acf6/image.jpg 2x","srcWebp":"/static/22ec140d8c11417aed83f52c77c5a5e2/03323/image.webp","srcSetWebp":"/static/22ec140d8c11417aed83f52c77c5a5e2/03323/image.webp 1x,\n/static/22ec140d8c11417aed83f52c77c5a5e2/c8e9c/image.webp 1.5x,\n/static/22ec140d8c11417aed83f52c77c5a5e2/e7f4c/image.webp 2x","width":380,"height":290},"hero":{"src":"/static/22ec140d8c11417aed83f52c77c5a5e2/a8483/image.jpg","srcSet":"/static/22ec140d8c11417aed83f52c77c5a5e2/a8483/image.jpg 1x","srcWebp":"/static/22ec140d8c11417aed83f52c77c5a5e2/7330c/image.webp","srcSetWebp":"/static/22ec140d8c11417aed83f52c77c5a5e2/7330c/image.webp 1x","width":1600,"height":650}}},{"__typename":"MdxArticleProxy","id":"93baa2a9-b14e-56f7-83b0-0ca2cab9a4c3","title":"How to test whether your innovation strategy is socially responsible","slug":"/how-to-test-whether-your-innovation-strategy-is-socially-responsible/","link":null,"excerpt":"Primo in altis pelle alumnae Lorem markdownum obvius in seque opus, est bicorni forte; laeva…","timeToRead":1,"featured":null,"thumbnailText":null,"date":"Invalid date","category":{"__typename":"CategoriesJson","id":"3334eb29-d55f-573d-9eae-08729772b4a8","name":"Innovation","slug":"/category/innovation/","color":null,"icon":"/static/35c6c4f7d744541f08be2bbd2770c8db/innovation.svg"},"author":{"__typename":"AuthorsJson","id":"6093709b-a119-5b0f-9743-9b9bb17a7b56","name":"Jane Smith","slug":"/author/jane-smith/","title":"Creative Designer","description":"Sed commodo, est quis maximus fermentum, massa ipsum euismod neque, in varius risus tellus quis lacus. Sed ac bibendum odio.","skills":["UI/UX","Javascript","Graphic Design"],"social":[{"name":"Github","url":"https://github.com/github"},{"name":"Twitter","url":"https://twitter.com/twitter"},{"name":"Website","url":"https://example.com"}],"thumbnail":{"__typename":"ImageSharp","regular":{"width":150,"height":150,"src":"/static/41bc1caf29080d62bd156256ffb0cd6a/97df7/jane-smith.png","srcSet":"/static/41bc1caf29080d62bd156256ffb0cd6a/97df7/jane-smith.png 1x,\n/static/41bc1caf29080d62bd156256ffb0cd6a/81b80/jane-smith.png 1.5x,\n/static/41bc1caf29080d62bd156256ffb0cd6a/bb938/jane-smith.png 2x"}}},"thumbnail":{"__typename":"ImageSharp","vertical":{"src":"/static/fdfa2791d293c7418594bcf37f554a74/8f7be/image.jpg","srcSet":"/static/fdfa2791d293c7418594bcf37f554a74/8f7be/image.jpg 1x,\n/static/fdfa2791d293c7418594bcf37f554a74/1af80/image.jpg 1.5x,\n/static/fdfa2791d293c7418594bcf37f554a74/1acf6/image.jpg 2x","srcWebp":"/static/fdfa2791d293c7418594bcf37f554a74/03323/image.webp","srcSetWebp":"/static/fdfa2791d293c7418594bcf37f554a74/03323/image.webp 1x,\n/static/fdfa2791d293c7418594bcf37f554a74/c8e9c/image.webp 1.5x,\n/static/fdfa2791d293c7418594bcf37f554a74/e7f4c/image.webp 2x","width":380,"height":290},"hero":{"src":"/static/fdfa2791d293c7418594bcf37f554a74/a8483/image.jpg","srcSet":"/static/fdfa2791d293c7418594bcf37f554a74/a8483/image.jpg 1x","srcWebp":"/static/fdfa2791d293c7418594bcf37f554a74/7330c/image.webp","srcSetWebp":"/static/fdfa2791d293c7418594bcf37f554a74/7330c/image.webp 1x","width":1600,"height":650}}},{"__typename":"MdxArticleProxy","id":"ed317014-7fa4-5bc4-aca5-d65bc69b53d5","title":"50 social impact innovations that might save the world","slug":"/50-social-impact-innovations-that-might-save-the-world/","link":null,"excerpt":"Primo in altis pelle alumnae Lorem markdownum obvius in seque opus, est bicorni forte; laeva…","timeToRead":1,"featured":null,"thumbnailText":null,"date":"Invalid date","category":{"__typename":"CategoriesJson","id":"3334eb29-d55f-573d-9eae-08729772b4a8","name":"Innovation","slug":"/category/innovation/","color":null,"icon":"/static/35c6c4f7d744541f08be2bbd2770c8db/innovation.svg"},"author":{"__typename":"AuthorsJson","id":"6093709b-a119-5b0f-9743-9b9bb17a7b56","name":"Jane Smith","slug":"/author/jane-smith/","title":"Creative Designer","description":"Sed commodo, est quis maximus fermentum, massa ipsum euismod neque, in varius risus tellus quis lacus. Sed ac bibendum odio.","skills":["UI/UX","Javascript","Graphic Design"],"social":[{"name":"Github","url":"https://github.com/github"},{"name":"Twitter","url":"https://twitter.com/twitter"},{"name":"Website","url":"https://example.com"}],"thumbnail":{"__typename":"ImageSharp","regular":{"width":150,"height":150,"src":"/static/41bc1caf29080d62bd156256ffb0cd6a/97df7/jane-smith.png","srcSet":"/static/41bc1caf29080d62bd156256ffb0cd6a/97df7/jane-smith.png 1x,\n/static/41bc1caf29080d62bd156256ffb0cd6a/81b80/jane-smith.png 1.5x,\n/static/41bc1caf29080d62bd156256ffb0cd6a/bb938/jane-smith.png 2x"}}},"thumbnail":{"__typename":"ImageSharp","vertical":{"src":"/static/3884ba103a7e1fa4b5e3a8b5079aba13/8f7be/image.jpg","srcSet":"/static/3884ba103a7e1fa4b5e3a8b5079aba13/8f7be/image.jpg 1x,\n/static/3884ba103a7e1fa4b5e3a8b5079aba13/1af80/image.jpg 1.5x,\n/static/3884ba103a7e1fa4b5e3a8b5079aba13/1acf6/image.jpg 2x","srcWebp":"/static/3884ba103a7e1fa4b5e3a8b5079aba13/03323/image.webp","srcSetWebp":"/static/3884ba103a7e1fa4b5e3a8b5079aba13/03323/image.webp 1x,\n/static/3884ba103a7e1fa4b5e3a8b5079aba13/c8e9c/image.webp 1.5x,\n/static/3884ba103a7e1fa4b5e3a8b5079aba13/e7f4c/image.webp 2x","width":380,"height":290},"hero":{"src":"/static/3884ba103a7e1fa4b5e3a8b5079aba13/a8483/image.jpg","srcSet":"/static/3884ba103a7e1fa4b5e3a8b5079aba13/a8483/image.jpg 1x","srcWebp":"/static/3884ba103a7e1fa4b5e3a8b5079aba13/7330c/image.webp","srcSetWebp":"/static/3884ba103a7e1fa4b5e3a8b5079aba13/7330c/image.webp 1x","width":1600,"height":650}}}],"pageInfo":{"pageCount":2,"hasPreviousPage":true,"hasNextPage":false,"currentPage":2},"totalCount":9}},"pageContext":{"slug":"/tag/innovation/","limit":6,"skip":6,"collectionType":"tags","paginatePostsPage":true,"basePath":"/","services":{"algolia":true,"mailchimp":true,"disqus":true},"siteUrl":"//flexiblog-personal.web.app","mobileMenu":{"title":"Topics","items":[{"name":"Advertising","slug":"/category/advertising/"},{"name":"Case Studies","slug":"/category/case-studies/"},{"name":"Innovation","slug":"/category/innovation/"}]}}},"staticQueryHashes":["618338068","620128445","620128445"]}