{"componentChunkName":"component---packages-blog-core-src-templates-collection-category-js","path":"/category/innovation/","result":{"data":{"collectionInfo":{"__typename":"CategoriesJson","id":"3334eb29-d55f-573d-9eae-08729772b4a8","name":"Innovation","slug":"/category/innovation/","description":"Lorem ipsum dolor sit amet, consectetur adipiscing elit, sed do eiusmod tempor incididunt ut labore."},"posts":{"nodes":[{"__typename":"MdxArticleProxy","id":"867797ff-4080-502e-b60a-a9e887a32b6a","title":"5 ingenious innovations triggered by chaos","slug":"/5-ingenious-innovations-triggered-by-chaos/","link":null,"excerpt":"Primo in altis pelle alumnae Lorem markdownum obvius in seque opus, est bicorni forte; laeva…","timeToRead":1,"featured":null,"thumbnailText":null,"date":"Invalid date","category":{"__typename":"CategoriesJson","id":"3334eb29-d55f-573d-9eae-08729772b4a8","name":"Innovation","slug":"/category/innovation/","color":null,"icon":"/static/35c6c4f7d744541f08be2bbd2770c8db/innovation.svg"},"author":{"__typename":"AuthorsJson","id":"6093709b-a119-5b0f-9743-9b9bb17a7b56","name":"Jane Smith","slug":"/author/jane-smith/","title":"Creative Designer","description":"Sed commodo, est quis maximus fermentum, massa ipsum euismod neque, in varius risus tellus quis lacus. Sed ac bibendum odio.","skills":["UI/UX","Javascript","Graphic Design"],"social":[{"name":"Github","url":"https://github.com/github"},{"name":"Twitter","url":"https://twitter.com/twitter"},{"name":"Website","url":"https://example.com"}],"thumbnail":{"__typename":"ImageSharp","regular":{"width":150,"height":150,"src":"/static/41bc1caf29080d62bd156256ffb0cd6a/97df7/jane-smith.png","srcSet":"/static/41bc1caf29080d62bd156256ffb0cd6a/97df7/jane-smith.png 1x,\n/static/41bc1caf29080d62bd156256ffb0cd6a/81b80/jane-smith.png 1.5x,\n/static/41bc1caf29080d62bd156256ffb0cd6a/bb938/jane-smith.png 2x"}}},"thumbnail":{"__typename":"ImageSharp","vertical":{"src":"/static/ba2457f09dca4e6a72821a35df140306/8f7be/image.jpg","srcSet":"/static/ba2457f09dca4e6a72821a35df140306/8f7be/image.jpg 1x,\n/static/ba2457f09dca4e6a72821a35df140306/1af80/image.jpg 1.5x,\n/static/ba2457f09dca4e6a72821a35df140306/1acf6/image.jpg 2x","srcWebp":"/static/ba2457f09dca4e6a72821a35df140306/03323/image.webp","srcSetWebp":"/static/ba2457f09dca4e6a72821a35df140306/03323/image.webp 1x,\n/static/ba2457f09dca4e6a72821a35df140306/c8e9c/image.webp 1.5x,\n/static/ba2457f09dca4e6a72821a35df140306/e7f4c/image.webp 2x","width":380,"height":290},"hero":{"src":"/static/ba2457f09dca4e6a72821a35df140306/a8483/image.jpg","srcSet":"/static/ba2457f09dca4e6a72821a35df140306/a8483/image.jpg 1x","srcWebp":"/static/ba2457f09dca4e6a72821a35df140306/7330c/image.webp","srcSetWebp":"/static/ba2457f09dca4e6a72821a35df140306/7330c/image.webp 1x","width":1600,"height":650}}},{"__typename":"MdxArticleProxy","id":"9b4632b6-3cbd-54f0-9945-19888fe32e46","title":"Business Model pivots in the Low Touch Economy","slug":"/business-model-pivots-in-the-low-touch-economy/","link":null,"excerpt":"Primo in altis pelle alumnae Lorem markdownum obvius in seque opus, est bicorni forte; laeva…","timeToRead":1,"featured":null,"thumbnailText":null,"date":"Invalid date","category":{"__typename":"CategoriesJson","id":"3334eb29-d55f-573d-9eae-08729772b4a8","name":"Innovation","slug":"/category/innovation/","color":null,"icon":"/static/35c6c4f7d744541f08be2bbd2770c8db/innovation.svg"},"author":{"__typename":"AuthorsJson","id":"6093709b-a119-5b0f-9743-9b9bb17a7b56","name":"Jane Smith","slug":"/author/jane-smith/","title":"Creative Designer","description":"Sed commodo, est quis maximus fermentum, massa ipsum euismod neque, in varius risus tellus quis lacus. Sed ac bibendum odio.","skills":["UI/UX","Javascript","Graphic Design"],"social":[{"name":"Github","url":"https://github.com/github"},{"name":"Twitter","url":"https://twitter.com/twitter"},{"name":"Website","url":"https://example.com"}],"thumbnail":{"__typename":"ImageSharp","regular":{"width":150,"height":150,"src":"/static/41bc1caf29080d62bd156256ffb0cd6a/97df7/jane-smith.png","srcSet":"/static/41bc1caf29080d62bd156256ffb0cd6a/97df7/jane-smith.png 1x,\n/static/41bc1caf29080d62bd156256ffb0cd6a/81b80/jane-smith.png 1.5x,\n/static/41bc1caf29080d62bd156256ffb0cd6a/bb938/jane-smith.png 2x"}}},"thumbnail":{"__typename":"ImageSharp","vertical":{"src":"/static/23a8236b35fdd6c4355a57c883756d11/8f7be/image.jpg","srcSet":"/static/23a8236b35fdd6c4355a57c883756d11/8f7be/image.jpg 1x,\n/static/23a8236b35fdd6c4355a57c883756d11/1af80/image.jpg 1.5x,\n/static/23a8236b35fdd6c4355a57c883756d11/1acf6/image.jpg 2x","srcWebp":"/static/23a8236b35fdd6c4355a57c883756d11/03323/image.webp","srcSetWebp":"/static/23a8236b35fdd6c4355a57c883756d11/03323/image.webp 1x,\n/static/23a8236b35fdd6c4355a57c883756d11/c8e9c/image.webp 1.5x,\n/static/23a8236b35fdd6c4355a57c883756d11/e7f4c/image.webp 2x","width":380,"height":290},"hero":{"src":"/static/23a8236b35fdd6c4355a57c883756d11/a8483/image.jpg","srcSet":"/static/23a8236b35fdd6c4355a57c883756d11/a8483/image.jpg 1x","srcWebp":"/static/23a8236b35fdd6c4355a57c883756d11/7330c/image.webp","srcSetWebp":"/static/23a8236b35fdd6c4355a57c883756d11/7330c/image.webp 1x","width":1600,"height":650}}},{"__typename":"MdxArticleProxy","id":"19dbb5dd-5db7-521b-885b-ce8a42f9bd27","title":"Can a designer sustainably transform the world?","slug":"/can-a-designer-sustainably-transform-the-world/","link":null,"excerpt":"Primo in altis pelle alumnae Lorem markdownum obvius in seque opus, est bicorni forte; laeva…","timeToRead":1,"featured":null,"thumbnailText":null,"date":"Invalid date","category":{"__typename":"CategoriesJson","id":"3334eb29-d55f-573d-9eae-08729772b4a8","name":"Innovation","slug":"/category/innovation/","color":null,"icon":"/static/35c6c4f7d744541f08be2bbd2770c8db/innovation.svg"},"author":{"__typename":"AuthorsJson","id":"6093709b-a119-5b0f-9743-9b9bb17a7b56","name":"Jane Smith","slug":"/author/jane-smith/","title":"Creative Designer","description":"Sed commodo, est quis maximus fermentum, massa ipsum euismod neque, in varius risus tellus quis lacus. Sed ac bibendum odio.","skills":["UI/UX","Javascript","Graphic Design"],"social":[{"name":"Github","url":"https://github.com/github"},{"name":"Twitter","url":"https://twitter.com/twitter"},{"name":"Website","url":"https://example.com"}],"thumbnail":{"__typename":"ImageSharp","regular":{"width":150,"height":150,"src":"/static/41bc1caf29080d62bd156256ffb0cd6a/97df7/jane-smith.png","srcSet":"/static/41bc1caf29080d62bd156256ffb0cd6a/97df7/jane-smith.png 1x,\n/static/41bc1caf29080d62bd156256ffb0cd6a/81b80/jane-smith.png 1.5x,\n/static/41bc1caf29080d62bd156256ffb0cd6a/bb938/jane-smith.png 2x"}}},"thumbnail":{"__typename":"ImageSharp","vertical":{"src":"/static/0bb8607485a755fe66caff690f2f6d4a/8f7be/image.jpg","srcSet":"/static/0bb8607485a755fe66caff690f2f6d4a/8f7be/image.jpg 1x,\n/static/0bb8607485a755fe66caff690f2f6d4a/1af80/image.jpg 1.5x,\n/static/0bb8607485a755fe66caff690f2f6d4a/1acf6/image.jpg 2x","srcWebp":"/static/0bb8607485a755fe66caff690f2f6d4a/03323/image.webp","srcSetWebp":"/static/0bb8607485a755fe66caff690f2f6d4a/03323/image.webp 1x,\n/static/0bb8607485a755fe66caff690f2f6d4a/c8e9c/image.webp 1.5x,\n/static/0bb8607485a755fe66caff690f2f6d4a/e7f4c/image.webp 2x","width":380,"height":290},"hero":{"src":"/static/0bb8607485a755fe66caff690f2f6d4a/a8483/image.jpg","srcSet":"/static/0bb8607485a755fe66caff690f2f6d4a/a8483/image.jpg 1x","srcWebp":"/static/0bb8607485a755fe66caff690f2f6d4a/7330c/image.webp","srcSetWebp":"/static/0bb8607485a755fe66caff690f2f6d4a/7330c/image.webp 1x","width":1600,"height":650}}},{"__typename":"MdxArticleProxy","id":"b2cd25ef-5433-518c-b049-590354da1582","title":"Create an international team of innovation catalysts in 5 steps","slug":"/create-an-international-team-of-innovation-catalysts-in-5-steps/","link":null,"excerpt":"Primo in altis pelle alumnae Lorem markdownum obvius in seque opus, est bicorni forte; laeva…","timeToRead":1,"featured":null,"thumbnailText":null,"date":"Invalid date","category":{"__typename":"CategoriesJson","id":"3334eb29-d55f-573d-9eae-08729772b4a8","name":"Innovation","slug":"/category/innovation/","color":null,"icon":"/static/35c6c4f7d744541f08be2bbd2770c8db/innovation.svg"},"author":{"__typename":"AuthorsJson","id":"6093709b-a119-5b0f-9743-9b9bb17a7b56","name":"Jane Smith","slug":"/author/jane-smith/","title":"Creative Designer","description":"Sed commodo, est quis maximus fermentum, massa ipsum euismod neque, in varius risus tellus quis lacus. Sed ac bibendum odio.","skills":["UI/UX","Javascript","Graphic Design"],"social":[{"name":"Github","url":"https://github.com/github"},{"name":"Twitter","url":"https://twitter.com/twitter"},{"name":"Website","url":"https://example.com"}],"thumbnail":{"__typename":"ImageSharp","regular":{"width":150,"height":150,"src":"/static/41bc1caf29080d62bd156256ffb0cd6a/97df7/jane-smith.png","srcSet":"/static/41bc1caf29080d62bd156256ffb0cd6a/97df7/jane-smith.png 1x,\n/static/41bc1caf29080d62bd156256ffb0cd6a/81b80/jane-smith.png 1.5x,\n/static/41bc1caf29080d62bd156256ffb0cd6a/bb938/jane-smith.png 2x"}}},"thumbnail":{"__typename":"ImageSharp","vertical":{"src":"/static/74269ea10046b4f4966c51570ce0cc8f/8f7be/image.jpg","srcSet":"/static/74269ea10046b4f4966c51570ce0cc8f/8f7be/image.jpg 1x,\n/static/74269ea10046b4f4966c51570ce0cc8f/1af80/image.jpg 1.5x,\n/static/74269ea10046b4f4966c51570ce0cc8f/1acf6/image.jpg 2x","srcWebp":"/static/74269ea10046b4f4966c51570ce0cc8f/03323/image.webp","srcSetWebp":"/static/74269ea10046b4f4966c51570ce0cc8f/03323/image.webp 1x,\n/static/74269ea10046b4f4966c51570ce0cc8f/c8e9c/image.webp 1.5x,\n/static/74269ea10046b4f4966c51570ce0cc8f/e7f4c/image.webp 2x","width":380,"height":290},"hero":{"src":"/static/74269ea10046b4f4966c51570ce0cc8f/a8483/image.jpg","srcSet":"/static/74269ea10046b4f4966c51570ce0cc8f/a8483/image.jpg 1x","srcWebp":"/static/74269ea10046b4f4966c51570ce0cc8f/7330c/image.webp","srcSetWebp":"/static/74269ea10046b4f4966c51570ce0cc8f/7330c/image.webp 1x","width":1600,"height":650}}},{"__typename":"MdxArticleProxy","id":"83fe0974-42cc-5a45-808d-23d3fb502e1c","title":"Future-proof your organization with biomimicry thinking","slug":"/future-proof-your-organization-with-biomimicry-thinking/","link":null,"excerpt":"Primo in altis pelle alumnae Lorem markdownum obvius in seque opus, est bicorni forte; laeva…","timeToRead":1,"featured":null,"thumbnailText":null,"date":"Invalid date","category":{"__typename":"CategoriesJson","id":"3334eb29-d55f-573d-9eae-08729772b4a8","name":"Innovation","slug":"/category/innovation/","color":null,"icon":"/static/35c6c4f7d744541f08be2bbd2770c8db/innovation.svg"},"author":{"__typename":"AuthorsJson","id":"6093709b-a119-5b0f-9743-9b9bb17a7b56","name":"Jane Smith","slug":"/author/jane-smith/","title":"Creative Designer","description":"Sed commodo, est quis maximus fermentum, massa ipsum euismod neque, in varius risus tellus quis lacus. Sed ac bibendum odio.","skills":["UI/UX","Javascript","Graphic Design"],"social":[{"name":"Github","url":"https://github.com/github"},{"name":"Twitter","url":"https://twitter.com/twitter"},{"name":"Website","url":"https://example.com"}],"thumbnail":{"__typename":"ImageSharp","regular":{"width":150,"height":150,"src":"/static/41bc1caf29080d62bd156256ffb0cd6a/97df7/jane-smith.png","srcSet":"/static/41bc1caf29080d62bd156256ffb0cd6a/97df7/jane-smith.png 1x,\n/static/41bc1caf29080d62bd156256ffb0cd6a/81b80/jane-smith.png 1.5x,\n/static/41bc1caf29080d62bd156256ffb0cd6a/bb938/jane-smith.png 2x"}}},"thumbnail":{"__typename":"ImageSharp","vertical":{"src":"/static/00c31157d6959f04b9fe4a1ba422e079/8f7be/image.jpg","srcSet":"/static/00c31157d6959f04b9fe4a1ba422e079/8f7be/image.jpg 1x,\n/static/00c31157d6959f04b9fe4a1ba422e079/1af80/image.jpg 1.5x,\n/static/00c31157d6959f04b9fe4a1ba422e079/1acf6/image.jpg 2x","srcWebp":"/static/00c31157d6959f04b9fe4a1ba422e079/03323/image.webp","srcSetWebp":"/static/00c31157d6959f04b9fe4a1ba422e079/03323/image.webp 1x,\n/static/00c31157d6959f04b9fe4a1ba422e079/c8e9c/image.webp 1.5x,\n/static/00c31157d6959f04b9fe4a1ba422e079/e7f4c/image.webp 2x","width":380,"height":290},"hero":{"src":"/static/00c31157d6959f04b9fe4a1ba422e079/a8483/image.jpg","srcSet":"/static/00c31157d6959f04b9fe4a1ba422e079/a8483/image.jpg 1x","srcWebp":"/static/00c31157d6959f04b9fe4a1ba422e079/7330c/image.webp","srcSetWebp":"/static/00c31157d6959f04b9fe4a1ba422e079/7330c/image.webp 1x","width":1600,"height":650}}},{"__typename":"MdxArticleProxy","id":"f29a06b0-363e-5ce3-a1b0-80ee499935e3","title":"How to assess your company’s level of innovation","slug":"/how-to-assess-your-companys-level-of-innovation/","link":null,"excerpt":"Primo in altis pelle alumnae Lorem markdownum obvius in seque opus, est bicorni forte; laeva…","timeToRead":1,"featured":null,"thumbnailText":null,"date":"Invalid date","category":{"__typename":"CategoriesJson","id":"3334eb29-d55f-573d-9eae-08729772b4a8","name":"Innovation","slug":"/category/innovation/","color":null,"icon":"/static/35c6c4f7d744541f08be2bbd2770c8db/innovation.svg"},"author":{"__typename":"AuthorsJson","id":"6093709b-a119-5b0f-9743-9b9bb17a7b56","name":"Jane Smith","slug":"/author/jane-smith/","title":"Creative Designer","description":"Sed commodo, est quis maximus fermentum, massa ipsum euismod neque, in varius risus tellus quis lacus. Sed ac bibendum odio.","skills":["UI/UX","Javascript","Graphic Design"],"social":[{"name":"Github","url":"https://github.com/github"},{"name":"Twitter","url":"https://twitter.com/twitter"},{"name":"Website","url":"https://example.com"}],"thumbnail":{"__typename":"ImageSharp","regular":{"width":150,"height":150,"src":"/static/41bc1caf29080d62bd156256ffb0cd6a/97df7/jane-smith.png","srcSet":"/static/41bc1caf29080d62bd156256ffb0cd6a/97df7/jane-smith.png 1x,\n/static/41bc1caf29080d62bd156256ffb0cd6a/81b80/jane-smith.png 1.5x,\n/static/41bc1caf29080d62bd156256ffb0cd6a/bb938/jane-smith.png 2x"}}},"thumbnail":{"__typename":"ImageSharp","vertical":{"src":"/static/e33082b1c7d6d9369b53366d89f62d83/8f7be/image.jpg","srcSet":"/static/e33082b1c7d6d9369b53366d89f62d83/8f7be/image.jpg 1x,\n/static/e33082b1c7d6d9369b53366d89f62d83/1af80/image.jpg 1.5x,\n/static/e33082b1c7d6d9369b53366d89f62d83/1acf6/image.jpg 2x","srcWebp":"/static/e33082b1c7d6d9369b53366d89f62d83/03323/image.webp","srcSetWebp":"/static/e33082b1c7d6d9369b53366d89f62d83/03323/image.webp 1x,\n/static/e33082b1c7d6d9369b53366d89f62d83/c8e9c/image.webp 1.5x,\n/static/e33082b1c7d6d9369b53366d89f62d83/e7f4c/image.webp 2x","width":380,"height":290},"hero":{"src":"/static/e33082b1c7d6d9369b53366d89f62d83/a8483/image.jpg","srcSet":"/static/e33082b1c7d6d9369b53366d89f62d83/a8483/image.jpg 1x","srcWebp":"/static/e33082b1c7d6d9369b53366d89f62d83/7330c/image.webp","srcSetWebp":"/static/e33082b1c7d6d9369b53366d89f62d83/7330c/image.webp 1x","width":1600,"height":650}}}],"pageInfo":{"pageCount":2,"hasPreviousPage":false,"hasNextPage":true,"currentPage":1},"totalCount":9}},"pageContext":{"slug":"/category/innovation/","limit":6,"skip":0,"collectionType":"category","paginatePostsPage":true,"basePath":"/","services":{"algolia":true,"mailchimp":true,"disqus":true},"siteUrl":"//flexiblog-personal.web.app","mobileMenu":{"title":"Topics","items":[{"name":"Advertising","slug":"/category/advertising/"},{"name":"Case Studies","slug":"/category/case-studies/"},{"name":"Innovation","slug":"/category/innovation/"}]}}},"staticQueryHashes":["618338068","620128445","620128445"]}