{"componentChunkName":"component---packages-blog-core-src-templates-collection-tag-js","path":"/tag/agency/page/4/","result":{"data":{"collectionInfo":{"id":"853903ab-6fa6-58de-b05e-cd9904325aa5","name":"#agency","slug":"/tag/agency/"},"posts":{"nodes":[{"__typename":"MdxArticleProxy","id":"21d006a2-cdfd-53d1-8fd6-0a50fb49094b","title":"University boosts alumni engagement with nostalgic playlist","slug":"/university-boosts-alumni-engagement-with-nostalgic-playlist/","link":null,"excerpt":"Lorem markdownum quisque caeli, aura niger  molitur tangam  licebit, cum quo ut\nharenae pauper, eras…","timeToRead":1,"featured":null,"thumbnailText":null,"date":"April 16, 2019","category":{"__typename":"CategoriesJson","id":"88b5aa8d-2061-5291-9f39-54966b1f60e5","name":"Case Studies","slug":"/category/case-studies/","color":null,"icon":"/static/1de85bbd781531b61bf5a25b83d72d32/case-studies.svg"},"author":{"__typename":"AuthorsJson","id":"6093709b-a119-5b0f-9743-9b9bb17a7b56","name":"Jane Smith","slug":"/author/jane-smith/","title":"Creative Designer","description":"Sed commodo, est quis maximus fermentum, massa ipsum euismod neque, in varius risus tellus quis lacus. Sed ac bibendum odio.","skills":["UI/UX","Javascript","Graphic Design"],"social":[{"name":"Github","url":"https://github.com/github"},{"name":"Twitter","url":"https://twitter.com/twitter"},{"name":"Website","url":"https://example.com"}],"thumbnail":{"__typename":"ImageSharp","regular":{"width":150,"height":150,"src":"/static/41bc1caf29080d62bd156256ffb0cd6a/97df7/jane-smith.png","srcSet":"/static/41bc1caf29080d62bd156256ffb0cd6a/97df7/jane-smith.png 1x,\n/static/41bc1caf29080d62bd156256ffb0cd6a/81b80/jane-smith.png 1.5x,\n/static/41bc1caf29080d62bd156256ffb0cd6a/bb938/jane-smith.png 2x"}}},"thumbnail":{"__typename":"ImageSharp","vertical":{"src":"/static/85a84328835c3552fa2d66cfac8205b8/8f7be/image.jpg","srcSet":"/static/85a84328835c3552fa2d66cfac8205b8/8f7be/image.jpg 1x,\n/static/85a84328835c3552fa2d66cfac8205b8/1af80/image.jpg 1.5x,\n/static/85a84328835c3552fa2d66cfac8205b8/1acf6/image.jpg 2x","srcWebp":"/static/85a84328835c3552fa2d66cfac8205b8/03323/image.webp","srcSetWebp":"/static/85a84328835c3552fa2d66cfac8205b8/03323/image.webp 1x,\n/static/85a84328835c3552fa2d66cfac8205b8/c8e9c/image.webp 1.5x,\n/static/85a84328835c3552fa2d66cfac8205b8/e7f4c/image.webp 2x","width":380,"height":290},"hero":{"src":"/static/85a84328835c3552fa2d66cfac8205b8/a8483/image.jpg","srcSet":"/static/85a84328835c3552fa2d66cfac8205b8/a8483/image.jpg 1x","srcWebp":"/static/85a84328835c3552fa2d66cfac8205b8/7330c/image.webp","srcSetWebp":"/static/85a84328835c3552fa2d66cfac8205b8/7330c/image.webp 1x","width":1600,"height":650}}},{"__typename":"MdxArticleProxy","id":"4f785c74-3e6a-5129-8641-c5f8d54c4160","title":"Web Design Company’s Secret to Not Losing Money on Projects","slug":"/web-design-companys-secret-to-not-losing-money-on-projects/","link":null,"excerpt":"Lorem markdownum obvius in seque opus, est bicorni forte; laeva.  Iurant \npatria beatam semel…","timeToRead":1,"featured":null,"thumbnailText":null,"date":"April 16, 2019","category":{"__typename":"CategoriesJson","id":"88b5aa8d-2061-5291-9f39-54966b1f60e5","name":"Case Studies","slug":"/category/case-studies/","color":null,"icon":"/static/1de85bbd781531b61bf5a25b83d72d32/case-studies.svg"},"author":{"__typename":"AuthorsJson","id":"6093709b-a119-5b0f-9743-9b9bb17a7b56","name":"Jane Smith","slug":"/author/jane-smith/","title":"Creative Designer","description":"Sed commodo, est quis maximus fermentum, massa ipsum euismod neque, in varius risus tellus quis lacus. Sed ac bibendum odio.","skills":["UI/UX","Javascript","Graphic Design"],"social":[{"name":"Github","url":"https://github.com/github"},{"name":"Twitter","url":"https://twitter.com/twitter"},{"name":"Website","url":"https://example.com"}],"thumbnail":{"__typename":"ImageSharp","regular":{"width":150,"height":150,"src":"/static/41bc1caf29080d62bd156256ffb0cd6a/97df7/jane-smith.png","srcSet":"/static/41bc1caf29080d62bd156256ffb0cd6a/97df7/jane-smith.png 1x,\n/static/41bc1caf29080d62bd156256ffb0cd6a/81b80/jane-smith.png 1.5x,\n/static/41bc1caf29080d62bd156256ffb0cd6a/bb938/jane-smith.png 2x"}}},"thumbnail":{"__typename":"ImageSharp","vertical":{"src":"/static/52d1fc7acfad39551744e434d7e83c71/8f7be/image.jpg","srcSet":"/static/52d1fc7acfad39551744e434d7e83c71/8f7be/image.jpg 1x,\n/static/52d1fc7acfad39551744e434d7e83c71/1af80/image.jpg 1.5x,\n/static/52d1fc7acfad39551744e434d7e83c71/1acf6/image.jpg 2x","srcWebp":"/static/52d1fc7acfad39551744e434d7e83c71/03323/image.webp","srcSetWebp":"/static/52d1fc7acfad39551744e434d7e83c71/03323/image.webp 1x,\n/static/52d1fc7acfad39551744e434d7e83c71/c8e9c/image.webp 1.5x,\n/static/52d1fc7acfad39551744e434d7e83c71/e7f4c/image.webp 2x","width":380,"height":290},"hero":{"src":"/static/52d1fc7acfad39551744e434d7e83c71/a8483/image.jpg","srcSet":"/static/52d1fc7acfad39551744e434d7e83c71/a8483/image.jpg 1x","srcWebp":"/static/52d1fc7acfad39551744e434d7e83c71/7330c/image.webp","srcSetWebp":"/static/52d1fc7acfad39551744e434d7e83c71/7330c/image.webp 1x","width":1600,"height":650}}}],"pageInfo":{"pageCount":4,"hasPreviousPage":true,"hasNextPage":false,"currentPage":4},"totalCount":20}},"pageContext":{"slug":"/tag/agency/","limit":6,"skip":18,"collectionType":"tags","paginatePostsPage":true,"basePath":"/","services":{"algolia":true,"mailchimp":true,"disqus":true},"siteUrl":"//flexiblog-personal.web.app","mobileMenu":{"title":"Topics","items":[{"name":"Advertising","slug":"/category/advertising/"},{"name":"Case Studies","slug":"/category/case-studies/"},{"name":"Innovation","slug":"/category/innovation/"}]}}},"staticQueryHashes":["618338068","620128445","620128445"]}