{"componentChunkName":"component---packages-blog-core-src-templates-collection-author-js","path":"/author/jane-smith/page/3/","result":{"data":{"collectionInfo":{"__typename":"AuthorsJson","id":"6093709b-a119-5b0f-9743-9b9bb17a7b56","name":"Jane Smith","slug":"/author/jane-smith/","title":"Creative Designer","description":"Sed commodo, est quis maximus fermentum, massa ipsum euismod neque, in varius risus tellus quis lacus. Sed ac bibendum odio.","skills":["UI/UX","Javascript","Graphic Design"],"social":[{"name":"Github","url":"https://github.com/github"},{"name":"Twitter","url":"https://twitter.com/twitter"},{"name":"Website","url":"https://example.com"}],"thumbnail":{"__typename":"ImageSharp","regular":{"width":150,"height":150,"src":"/static/41bc1caf29080d62bd156256ffb0cd6a/97df7/jane-smith.png","srcSet":"/static/41bc1caf29080d62bd156256ffb0cd6a/97df7/jane-smith.png 1x,\n/static/41bc1caf29080d62bd156256ffb0cd6a/81b80/jane-smith.png 1.5x,\n/static/41bc1caf29080d62bd156256ffb0cd6a/bb938/jane-smith.png 2x"}}},"posts":{"nodes":[{"__typename":"MdxArticleProxy","id":"641f25d5-9e1c-5e48-a6b0-673d0b4588ea","title":"Branding Agency Replaced Ten Tools With Just One","slug":"/branding-agency-replaced-ten-tools-with-just-one/","link":null,"excerpt":"Me clausere Erigonen ego Lorem markdownum sustineant oscula caespite ad gratia motus silvis…","timeToRead":1,"featured":true,"thumbnailText":null,"date":"April 16, 2019","category":{"__typename":"CategoriesJson","id":"88b5aa8d-2061-5291-9f39-54966b1f60e5","name":"Case Studies","slug":"/category/case-studies/","color":null,"icon":"/static/1de85bbd781531b61bf5a25b83d72d32/case-studies.svg"},"author":{"__typename":"AuthorsJson","id":"6093709b-a119-5b0f-9743-9b9bb17a7b56","name":"Jane Smith","slug":"/author/jane-smith/","title":"Creative Designer","description":"Sed commodo, est quis maximus fermentum, massa ipsum euismod neque, in varius risus tellus quis lacus. Sed ac bibendum odio.","skills":["UI/UX","Javascript","Graphic Design"],"social":[{"name":"Github","url":"https://github.com/github"},{"name":"Twitter","url":"https://twitter.com/twitter"},{"name":"Website","url":"https://example.com"}],"thumbnail":{"__typename":"ImageSharp","regular":{"width":150,"height":150,"src":"/static/41bc1caf29080d62bd156256ffb0cd6a/97df7/jane-smith.png","srcSet":"/static/41bc1caf29080d62bd156256ffb0cd6a/97df7/jane-smith.png 1x,\n/static/41bc1caf29080d62bd156256ffb0cd6a/81b80/jane-smith.png 1.5x,\n/static/41bc1caf29080d62bd156256ffb0cd6a/bb938/jane-smith.png 2x"}}},"thumbnail":{"__typename":"ImageSharp","vertical":{"src":"/static/7415bab1032f4058ce976272400c5e1b/8f7be/image.jpg","srcSet":"/static/7415bab1032f4058ce976272400c5e1b/8f7be/image.jpg 1x,\n/static/7415bab1032f4058ce976272400c5e1b/1af80/image.jpg 1.5x,\n/static/7415bab1032f4058ce976272400c5e1b/1acf6/image.jpg 2x","srcWebp":"/static/7415bab1032f4058ce976272400c5e1b/03323/image.webp","srcSetWebp":"/static/7415bab1032f4058ce976272400c5e1b/03323/image.webp 1x,\n/static/7415bab1032f4058ce976272400c5e1b/c8e9c/image.webp 1.5x,\n/static/7415bab1032f4058ce976272400c5e1b/e7f4c/image.webp 2x","width":380,"height":290},"hero":{"src":"/static/7415bab1032f4058ce976272400c5e1b/a8483/image.jpg","srcSet":"/static/7415bab1032f4058ce976272400c5e1b/a8483/image.jpg 1x","srcWebp":"/static/7415bab1032f4058ce976272400c5e1b/7330c/image.webp","srcSetWebp":"/static/7415bab1032f4058ce976272400c5e1b/7330c/image.webp 1x","width":1600,"height":650}}},{"__typename":"MdxArticleProxy","id":"591c1e1c-c7e1-5ae5-988d-d1b98aa1bd40","title":"Charity engages 1m more supporters with revamped digital presence","slug":"/charity-engages-1m-more-supporters-with-revamped-digital-presence/","link":null,"excerpt":"Dona curvo sub evertere quam ultimus aridus Lorem markdownum , sub tecumque, posceret revertar…","timeToRead":1,"featured":null,"thumbnailText":null,"date":"April 16, 2019","category":{"__typename":"CategoriesJson","id":"88b5aa8d-2061-5291-9f39-54966b1f60e5","name":"Case Studies","slug":"/category/case-studies/","color":null,"icon":"/static/1de85bbd781531b61bf5a25b83d72d32/case-studies.svg"},"author":{"__typename":"AuthorsJson","id":"6093709b-a119-5b0f-9743-9b9bb17a7b56","name":"Jane Smith","slug":"/author/jane-smith/","title":"Creative Designer","description":"Sed commodo, est quis maximus fermentum, massa ipsum euismod neque, in varius risus tellus quis lacus. Sed ac bibendum odio.","skills":["UI/UX","Javascript","Graphic Design"],"social":[{"name":"Github","url":"https://github.com/github"},{"name":"Twitter","url":"https://twitter.com/twitter"},{"name":"Website","url":"https://example.com"}],"thumbnail":{"__typename":"ImageSharp","regular":{"width":150,"height":150,"src":"/static/41bc1caf29080d62bd156256ffb0cd6a/97df7/jane-smith.png","srcSet":"/static/41bc1caf29080d62bd156256ffb0cd6a/97df7/jane-smith.png 1x,\n/static/41bc1caf29080d62bd156256ffb0cd6a/81b80/jane-smith.png 1.5x,\n/static/41bc1caf29080d62bd156256ffb0cd6a/bb938/jane-smith.png 2x"}}},"thumbnail":{"__typename":"ImageSharp","vertical":{"src":"/static/3237856454f876cb2d2b13ad601b8a6e/8f7be/image.jpg","srcSet":"/static/3237856454f876cb2d2b13ad601b8a6e/8f7be/image.jpg 1x,\n/static/3237856454f876cb2d2b13ad601b8a6e/1af80/image.jpg 1.5x,\n/static/3237856454f876cb2d2b13ad601b8a6e/1acf6/image.jpg 2x","srcWebp":"/static/3237856454f876cb2d2b13ad601b8a6e/03323/image.webp","srcSetWebp":"/static/3237856454f876cb2d2b13ad601b8a6e/03323/image.webp 1x,\n/static/3237856454f876cb2d2b13ad601b8a6e/c8e9c/image.webp 1.5x,\n/static/3237856454f876cb2d2b13ad601b8a6e/e7f4c/image.webp 2x","width":380,"height":290},"hero":{"src":"/static/3237856454f876cb2d2b13ad601b8a6e/a8483/image.jpg","srcSet":"/static/3237856454f876cb2d2b13ad601b8a6e/a8483/image.jpg 1x","srcWebp":"/static/3237856454f876cb2d2b13ad601b8a6e/7330c/image.webp","srcSetWebp":"/static/3237856454f876cb2d2b13ad601b8a6e/7330c/image.webp 1x","width":1600,"height":650}}},{"__typename":"MdxArticleProxy","id":"8335dcc9-980e-57bf-9fd4-0d60eb54ebd0","title":"Consultancy Saves 30% Time on Managing Daily Work","slug":"/consultancy-saves-30percent-time-on-managing-daily-work/","link":null,"excerpt":"Dona curvo sub evertere quam ultimus aridus Lorem markdownum , sub tecumque, posceret revertar…","timeToRead":1,"featured":null,"thumbnailText":null,"date":"April 16, 2019","category":{"__typename":"CategoriesJson","id":"88b5aa8d-2061-5291-9f39-54966b1f60e5","name":"Case Studies","slug":"/category/case-studies/","color":null,"icon":"/static/1de85bbd781531b61bf5a25b83d72d32/case-studies.svg"},"author":{"__typename":"AuthorsJson","id":"6093709b-a119-5b0f-9743-9b9bb17a7b56","name":"Jane Smith","slug":"/author/jane-smith/","title":"Creative Designer","description":"Sed commodo, est quis maximus fermentum, massa ipsum euismod neque, in varius risus tellus quis lacus. Sed ac bibendum odio.","skills":["UI/UX","Javascript","Graphic Design"],"social":[{"name":"Github","url":"https://github.com/github"},{"name":"Twitter","url":"https://twitter.com/twitter"},{"name":"Website","url":"https://example.com"}],"thumbnail":{"__typename":"ImageSharp","regular":{"width":150,"height":150,"src":"/static/41bc1caf29080d62bd156256ffb0cd6a/97df7/jane-smith.png","srcSet":"/static/41bc1caf29080d62bd156256ffb0cd6a/97df7/jane-smith.png 1x,\n/static/41bc1caf29080d62bd156256ffb0cd6a/81b80/jane-smith.png 1.5x,\n/static/41bc1caf29080d62bd156256ffb0cd6a/bb938/jane-smith.png 2x"}}},"thumbnail":{"__typename":"ImageSharp","vertical":{"src":"/static/02dc1d34fe76069bc126dc0902554548/8f7be/image.jpg","srcSet":"/static/02dc1d34fe76069bc126dc0902554548/8f7be/image.jpg 1x,\n/static/02dc1d34fe76069bc126dc0902554548/1af80/image.jpg 1.5x,\n/static/02dc1d34fe76069bc126dc0902554548/1acf6/image.jpg 2x","srcWebp":"/static/02dc1d34fe76069bc126dc0902554548/03323/image.webp","srcSetWebp":"/static/02dc1d34fe76069bc126dc0902554548/03323/image.webp 1x,\n/static/02dc1d34fe76069bc126dc0902554548/c8e9c/image.webp 1.5x,\n/static/02dc1d34fe76069bc126dc0902554548/e7f4c/image.webp 2x","width":380,"height":290},"hero":{"src":"/static/02dc1d34fe76069bc126dc0902554548/a8483/image.jpg","srcSet":"/static/02dc1d34fe76069bc126dc0902554548/a8483/image.jpg 1x","srcWebp":"/static/02dc1d34fe76069bc126dc0902554548/7330c/image.webp","srcSetWebp":"/static/02dc1d34fe76069bc126dc0902554548/7330c/image.webp 1x","width":1600,"height":650}}},{"__typename":"MdxArticleProxy","id":"5dda6c51-a6ab-5c72-8a3c-10cf6f5a794f","title":"Supermarket Chain’s Site Redesign Boosts Online Sales And Market Share","slug":"/supermarket-chains-site-redesign-boosts-online-sales-and-market-share/","link":null,"excerpt":"Dona curvo sub evertere quam ultimus aridus Lorem markdownum , sub tecumque, posceret revertar…","timeToRead":1,"featured":null,"thumbnailText":null,"date":"April 16, 2019","category":{"__typename":"CategoriesJson","id":"88b5aa8d-2061-5291-9f39-54966b1f60e5","name":"Case Studies","slug":"/category/case-studies/","color":null,"icon":"/static/1de85bbd781531b61bf5a25b83d72d32/case-studies.svg"},"author":{"__typename":"AuthorsJson","id":"6093709b-a119-5b0f-9743-9b9bb17a7b56","name":"Jane Smith","slug":"/author/jane-smith/","title":"Creative Designer","description":"Sed commodo, est quis maximus fermentum, massa ipsum euismod neque, in varius risus tellus quis lacus. Sed ac bibendum odio.","skills":["UI/UX","Javascript","Graphic Design"],"social":[{"name":"Github","url":"https://github.com/github"},{"name":"Twitter","url":"https://twitter.com/twitter"},{"name":"Website","url":"https://example.com"}],"thumbnail":{"__typename":"ImageSharp","regular":{"width":150,"height":150,"src":"/static/41bc1caf29080d62bd156256ffb0cd6a/97df7/jane-smith.png","srcSet":"/static/41bc1caf29080d62bd156256ffb0cd6a/97df7/jane-smith.png 1x,\n/static/41bc1caf29080d62bd156256ffb0cd6a/81b80/jane-smith.png 1.5x,\n/static/41bc1caf29080d62bd156256ffb0cd6a/bb938/jane-smith.png 2x"}}},"thumbnail":{"__typename":"ImageSharp","vertical":{"src":"/static/931c98c2c83f7fd51b4308a1f1d93b00/8f7be/image.jpg","srcSet":"/static/931c98c2c83f7fd51b4308a1f1d93b00/8f7be/image.jpg 1x,\n/static/931c98c2c83f7fd51b4308a1f1d93b00/1af80/image.jpg 1.5x,\n/static/931c98c2c83f7fd51b4308a1f1d93b00/1acf6/image.jpg 2x","srcWebp":"/static/931c98c2c83f7fd51b4308a1f1d93b00/03323/image.webp","srcSetWebp":"/static/931c98c2c83f7fd51b4308a1f1d93b00/03323/image.webp 1x,\n/static/931c98c2c83f7fd51b4308a1f1d93b00/c8e9c/image.webp 1.5x,\n/static/931c98c2c83f7fd51b4308a1f1d93b00/e7f4c/image.webp 2x","width":380,"height":290},"hero":{"src":"/static/931c98c2c83f7fd51b4308a1f1d93b00/a8483/image.jpg","srcSet":"/static/931c98c2c83f7fd51b4308a1f1d93b00/a8483/image.jpg 1x","srcWebp":"/static/931c98c2c83f7fd51b4308a1f1d93b00/7330c/image.webp","srcSetWebp":"/static/931c98c2c83f7fd51b4308a1f1d93b00/7330c/image.webp 1x","width":1600,"height":650}}},{"__typename":"MdxArticleProxy","id":"5d35c150-2045-5e2b-b4a0-0104b8565271","title":"Trigger emails boost digital revenue by 9.1% for furniture retailer","slug":"/trigger-emails-boost-digital-revenue-by-91percent-for-furniture-retailer/","link":null,"excerpt":"Lorem markdownum transitque nondum, Peliaeque at poterat exegit, urbis quo;\ntibi. Cursus mecum adit…","timeToRead":1,"featured":null,"thumbnailText":null,"date":"April 16, 2019","category":{"__typename":"CategoriesJson","id":"88b5aa8d-2061-5291-9f39-54966b1f60e5","name":"Case Studies","slug":"/category/case-studies/","color":null,"icon":"/static/1de85bbd781531b61bf5a25b83d72d32/case-studies.svg"},"author":{"__typename":"AuthorsJson","id":"6093709b-a119-5b0f-9743-9b9bb17a7b56","name":"Jane Smith","slug":"/author/jane-smith/","title":"Creative Designer","description":"Sed commodo, est quis maximus fermentum, massa ipsum euismod neque, in varius risus tellus quis lacus. Sed ac bibendum odio.","skills":["UI/UX","Javascript","Graphic Design"],"social":[{"name":"Github","url":"https://github.com/github"},{"name":"Twitter","url":"https://twitter.com/twitter"},{"name":"Website","url":"https://example.com"}],"thumbnail":{"__typename":"ImageSharp","regular":{"width":150,"height":150,"src":"/static/41bc1caf29080d62bd156256ffb0cd6a/97df7/jane-smith.png","srcSet":"/static/41bc1caf29080d62bd156256ffb0cd6a/97df7/jane-smith.png 1x,\n/static/41bc1caf29080d62bd156256ffb0cd6a/81b80/jane-smith.png 1.5x,\n/static/41bc1caf29080d62bd156256ffb0cd6a/bb938/jane-smith.png 2x"}}},"thumbnail":{"__typename":"ImageSharp","vertical":{"src":"/static/cf8b5f317021327d5776d37f65892f72/8f7be/image.jpg","srcSet":"/static/cf8b5f317021327d5776d37f65892f72/8f7be/image.jpg 1x,\n/static/cf8b5f317021327d5776d37f65892f72/1af80/image.jpg 1.5x,\n/static/cf8b5f317021327d5776d37f65892f72/1acf6/image.jpg 2x","srcWebp":"/static/cf8b5f317021327d5776d37f65892f72/03323/image.webp","srcSetWebp":"/static/cf8b5f317021327d5776d37f65892f72/03323/image.webp 1x,\n/static/cf8b5f317021327d5776d37f65892f72/c8e9c/image.webp 1.5x,\n/static/cf8b5f317021327d5776d37f65892f72/e7f4c/image.webp 2x","width":380,"height":290},"hero":{"src":"/static/cf8b5f317021327d5776d37f65892f72/a8483/image.jpg","srcSet":"/static/cf8b5f317021327d5776d37f65892f72/a8483/image.jpg 1x","srcWebp":"/static/cf8b5f317021327d5776d37f65892f72/7330c/image.webp","srcSetWebp":"/static/cf8b5f317021327d5776d37f65892f72/7330c/image.webp 1x","width":1600,"height":650}}},{"__typename":"MdxArticleProxy","id":"23cdb242-616c-502b-9a4a-29e2c41b9ae3","title":"Online shopping data drives offline revenue growth of 410%","slug":"/online-shopping-data-drives-offline-revenue-growth-of-410percent/","link":null,"excerpt":"Nec ego a vidit Lorem  markdownum Ilion. Naides ferox vocantem, Iuno artes patrios tamen,\nspicea…","timeToRead":1,"featured":null,"thumbnailText":null,"date":"April 16, 2019","category":{"__typename":"CategoriesJson","id":"88b5aa8d-2061-5291-9f39-54966b1f60e5","name":"Case Studies","slug":"/category/case-studies/","color":null,"icon":"/static/1de85bbd781531b61bf5a25b83d72d32/case-studies.svg"},"author":{"__typename":"AuthorsJson","id":"6093709b-a119-5b0f-9743-9b9bb17a7b56","name":"Jane Smith","slug":"/author/jane-smith/","title":"Creative Designer","description":"Sed commodo, est quis maximus fermentum, massa ipsum euismod neque, in varius risus tellus quis lacus. Sed ac bibendum odio.","skills":["UI/UX","Javascript","Graphic Design"],"social":[{"name":"Github","url":"https://github.com/github"},{"name":"Twitter","url":"https://twitter.com/twitter"},{"name":"Website","url":"https://example.com"}],"thumbnail":{"__typename":"ImageSharp","regular":{"width":150,"height":150,"src":"/static/41bc1caf29080d62bd156256ffb0cd6a/97df7/jane-smith.png","srcSet":"/static/41bc1caf29080d62bd156256ffb0cd6a/97df7/jane-smith.png 1x,\n/static/41bc1caf29080d62bd156256ffb0cd6a/81b80/jane-smith.png 1.5x,\n/static/41bc1caf29080d62bd156256ffb0cd6a/bb938/jane-smith.png 2x"}}},"thumbnail":{"__typename":"ImageSharp","vertical":{"src":"/static/8fd7dfc3732294b833b47a9d2434c231/8f7be/image.jpg","srcSet":"/static/8fd7dfc3732294b833b47a9d2434c231/8f7be/image.jpg 1x,\n/static/8fd7dfc3732294b833b47a9d2434c231/1af80/image.jpg 1.5x,\n/static/8fd7dfc3732294b833b47a9d2434c231/1acf6/image.jpg 2x","srcWebp":"/static/8fd7dfc3732294b833b47a9d2434c231/03323/image.webp","srcSetWebp":"/static/8fd7dfc3732294b833b47a9d2434c231/03323/image.webp 1x,\n/static/8fd7dfc3732294b833b47a9d2434c231/c8e9c/image.webp 1.5x,\n/static/8fd7dfc3732294b833b47a9d2434c231/e7f4c/image.webp 2x","width":380,"height":290},"hero":{"src":"/static/8fd7dfc3732294b833b47a9d2434c231/a8483/image.jpg","srcSet":"/static/8fd7dfc3732294b833b47a9d2434c231/a8483/image.jpg 1x","srcWebp":"/static/8fd7dfc3732294b833b47a9d2434c231/7330c/image.webp","srcSetWebp":"/static/8fd7dfc3732294b833b47a9d2434c231/7330c/image.webp 1x","width":1600,"height":650}}}],"pageInfo":{"pageCount":5,"hasPreviousPage":true,"hasNextPage":true,"currentPage":3},"totalCount":30}},"pageContext":{"slug":"/author/jane-smith/","limit":6,"skip":12,"collectionType":"author","paginatePostsPage":true,"basePath":"/","services":{"algolia":true,"mailchimp":true,"disqus":true},"siteUrl":"//flexiblog-personal.web.app","mobileMenu":{"title":"Topics","items":[{"name":"Advertising","slug":"/category/advertising/"},{"name":"Case Studies","slug":"/category/case-studies/"},{"name":"Innovation","slug":"/category/innovation/"}]}}},"staticQueryHashes":["618338068","620128445","620128445"]}