{"componentChunkName":"component---packages-blog-core-src-templates-collection-category-js","path":"/category/case-studies/page/2/","result":{"data":{"collectionInfo":{"__typename":"CategoriesJson","id":"88b5aa8d-2061-5291-9f39-54966b1f60e5","name":"Case Studies","slug":"/category/case-studies/","description":"Lorem ipsum dolor sit amet, consectetur adipiscing elit, sed do eiusmod tempor incididunt ut labore."},"posts":{"nodes":[{"__typename":"MdxArticleProxy","id":"23cdb242-616c-502b-9a4a-29e2c41b9ae3","title":"Online shopping data drives offline revenue growth of 410%","slug":"/online-shopping-data-drives-offline-revenue-growth-of-410percent/","link":null,"excerpt":"Nec ego a vidit Lorem  markdownum Ilion. Naides ferox vocantem, Iuno artes patrios tamen,\nspicea…","timeToRead":1,"featured":null,"thumbnailText":null,"date":"April 16, 2019","category":{"__typename":"CategoriesJson","id":"88b5aa8d-2061-5291-9f39-54966b1f60e5","name":"Case Studies","slug":"/category/case-studies/","color":null,"icon":"/static/1de85bbd781531b61bf5a25b83d72d32/case-studies.svg"},"author":{"__typename":"AuthorsJson","id":"6093709b-a119-5b0f-9743-9b9bb17a7b56","name":"Jane Smith","slug":"/author/jane-smith/","title":"Creative Designer","description":"Sed commodo, est quis maximus fermentum, massa ipsum euismod neque, in varius risus tellus quis lacus. Sed ac bibendum odio.","skills":["UI/UX","Javascript","Graphic Design"],"social":[{"name":"Github","url":"https://github.com/github"},{"name":"Twitter","url":"https://twitter.com/twitter"},{"name":"Website","url":"https://example.com"}],"thumbnail":{"__typename":"ImageSharp","regular":{"width":150,"height":150,"src":"/static/41bc1caf29080d62bd156256ffb0cd6a/97df7/jane-smith.png","srcSet":"/static/41bc1caf29080d62bd156256ffb0cd6a/97df7/jane-smith.png 1x,\n/static/41bc1caf29080d62bd156256ffb0cd6a/81b80/jane-smith.png 1.5x,\n/static/41bc1caf29080d62bd156256ffb0cd6a/bb938/jane-smith.png 2x"}}},"thumbnail":{"__typename":"ImageSharp","vertical":{"src":"/static/8fd7dfc3732294b833b47a9d2434c231/8f7be/image.jpg","srcSet":"/static/8fd7dfc3732294b833b47a9d2434c231/8f7be/image.jpg 1x,\n/static/8fd7dfc3732294b833b47a9d2434c231/1af80/image.jpg 1.5x,\n/static/8fd7dfc3732294b833b47a9d2434c231/1acf6/image.jpg 2x","srcWebp":"/static/8fd7dfc3732294b833b47a9d2434c231/03323/image.webp","srcSetWebp":"/static/8fd7dfc3732294b833b47a9d2434c231/03323/image.webp 1x,\n/static/8fd7dfc3732294b833b47a9d2434c231/c8e9c/image.webp 1.5x,\n/static/8fd7dfc3732294b833b47a9d2434c231/e7f4c/image.webp 2x","width":380,"height":290},"hero":{"src":"/static/8fd7dfc3732294b833b47a9d2434c231/a8483/image.jpg","srcSet":"/static/8fd7dfc3732294b833b47a9d2434c231/a8483/image.jpg 1x","srcWebp":"/static/8fd7dfc3732294b833b47a9d2434c231/7330c/image.webp","srcSetWebp":"/static/8fd7dfc3732294b833b47a9d2434c231/7330c/image.webp 1x","width":1600,"height":650}}},{"__typename":"MdxArticleProxy","id":"59a84e5a-d2ff-55a6-b694-893a4e3b5682","title":"SEO and content campaign delivers 2,190% ROI","slug":"/seo-and-content-campaign-delivers-2190percent-roi/","link":null,"excerpt":"Dona curvo sub evertere quam ultimus aridus Lorem markdownum , sub tecumque, posceret revertar…","timeToRead":1,"featured":null,"thumbnailText":null,"date":"April 16, 2019","category":{"__typename":"CategoriesJson","id":"88b5aa8d-2061-5291-9f39-54966b1f60e5","name":"Case Studies","slug":"/category/case-studies/","color":null,"icon":"/static/1de85bbd781531b61bf5a25b83d72d32/case-studies.svg"},"author":{"__typename":"AuthorsJson","id":"6093709b-a119-5b0f-9743-9b9bb17a7b56","name":"Jane Smith","slug":"/author/jane-smith/","title":"Creative Designer","description":"Sed commodo, est quis maximus fermentum, massa ipsum euismod neque, in varius risus tellus quis lacus. Sed ac bibendum odio.","skills":["UI/UX","Javascript","Graphic Design"],"social":[{"name":"Github","url":"https://github.com/github"},{"name":"Twitter","url":"https://twitter.com/twitter"},{"name":"Website","url":"https://example.com"}],"thumbnail":{"__typename":"ImageSharp","regular":{"width":150,"height":150,"src":"/static/41bc1caf29080d62bd156256ffb0cd6a/97df7/jane-smith.png","srcSet":"/static/41bc1caf29080d62bd156256ffb0cd6a/97df7/jane-smith.png 1x,\n/static/41bc1caf29080d62bd156256ffb0cd6a/81b80/jane-smith.png 1.5x,\n/static/41bc1caf29080d62bd156256ffb0cd6a/bb938/jane-smith.png 2x"}}},"thumbnail":{"__typename":"ImageSharp","vertical":{"src":"/static/a9e83c8c2578ff536b362c6c0b352e54/8f7be/image.jpg","srcSet":"/static/a9e83c8c2578ff536b362c6c0b352e54/8f7be/image.jpg 1x,\n/static/a9e83c8c2578ff536b362c6c0b352e54/1af80/image.jpg 1.5x,\n/static/a9e83c8c2578ff536b362c6c0b352e54/1acf6/image.jpg 2x","srcWebp":"/static/a9e83c8c2578ff536b362c6c0b352e54/03323/image.webp","srcSetWebp":"/static/a9e83c8c2578ff536b362c6c0b352e54/03323/image.webp 1x,\n/static/a9e83c8c2578ff536b362c6c0b352e54/c8e9c/image.webp 1.5x,\n/static/a9e83c8c2578ff536b362c6c0b352e54/e7f4c/image.webp 2x","width":380,"height":290},"hero":{"src":"/static/a9e83c8c2578ff536b362c6c0b352e54/a8483/image.jpg","srcSet":"/static/a9e83c8c2578ff536b362c6c0b352e54/a8483/image.jpg 1x","srcWebp":"/static/a9e83c8c2578ff536b362c6c0b352e54/7330c/image.webp","srcSetWebp":"/static/a9e83c8c2578ff536b362c6c0b352e54/7330c/image.webp 1x","width":1600,"height":650}}},{"__typename":"MdxArticleProxy","id":"21d006a2-cdfd-53d1-8fd6-0a50fb49094b","title":"University boosts alumni engagement with nostalgic playlist","slug":"/university-boosts-alumni-engagement-with-nostalgic-playlist/","link":null,"excerpt":"Lorem markdownum quisque caeli, aura niger  molitur tangam  licebit, cum quo ut\nharenae pauper, eras…","timeToRead":1,"featured":null,"thumbnailText":null,"date":"April 16, 2019","category":{"__typename":"CategoriesJson","id":"88b5aa8d-2061-5291-9f39-54966b1f60e5","name":"Case Studies","slug":"/category/case-studies/","color":null,"icon":"/static/1de85bbd781531b61bf5a25b83d72d32/case-studies.svg"},"author":{"__typename":"AuthorsJson","id":"6093709b-a119-5b0f-9743-9b9bb17a7b56","name":"Jane Smith","slug":"/author/jane-smith/","title":"Creative Designer","description":"Sed commodo, est quis maximus fermentum, massa ipsum euismod neque, in varius risus tellus quis lacus. Sed ac bibendum odio.","skills":["UI/UX","Javascript","Graphic Design"],"social":[{"name":"Github","url":"https://github.com/github"},{"name":"Twitter","url":"https://twitter.com/twitter"},{"name":"Website","url":"https://example.com"}],"thumbnail":{"__typename":"ImageSharp","regular":{"width":150,"height":150,"src":"/static/41bc1caf29080d62bd156256ffb0cd6a/97df7/jane-smith.png","srcSet":"/static/41bc1caf29080d62bd156256ffb0cd6a/97df7/jane-smith.png 1x,\n/static/41bc1caf29080d62bd156256ffb0cd6a/81b80/jane-smith.png 1.5x,\n/static/41bc1caf29080d62bd156256ffb0cd6a/bb938/jane-smith.png 2x"}}},"thumbnail":{"__typename":"ImageSharp","vertical":{"src":"/static/85a84328835c3552fa2d66cfac8205b8/8f7be/image.jpg","srcSet":"/static/85a84328835c3552fa2d66cfac8205b8/8f7be/image.jpg 1x,\n/static/85a84328835c3552fa2d66cfac8205b8/1af80/image.jpg 1.5x,\n/static/85a84328835c3552fa2d66cfac8205b8/1acf6/image.jpg 2x","srcWebp":"/static/85a84328835c3552fa2d66cfac8205b8/03323/image.webp","srcSetWebp":"/static/85a84328835c3552fa2d66cfac8205b8/03323/image.webp 1x,\n/static/85a84328835c3552fa2d66cfac8205b8/c8e9c/image.webp 1.5x,\n/static/85a84328835c3552fa2d66cfac8205b8/e7f4c/image.webp 2x","width":380,"height":290},"hero":{"src":"/static/85a84328835c3552fa2d66cfac8205b8/a8483/image.jpg","srcSet":"/static/85a84328835c3552fa2d66cfac8205b8/a8483/image.jpg 1x","srcWebp":"/static/85a84328835c3552fa2d66cfac8205b8/7330c/image.webp","srcSetWebp":"/static/85a84328835c3552fa2d66cfac8205b8/7330c/image.webp 1x","width":1600,"height":650}}},{"__typename":"MdxArticleProxy","id":"4f785c74-3e6a-5129-8641-c5f8d54c4160","title":"Web Design Company’s Secret to Not Losing Money on Projects","slug":"/web-design-companys-secret-to-not-losing-money-on-projects/","link":null,"excerpt":"Lorem markdownum obvius in seque opus, est bicorni forte; laeva.  Iurant \npatria beatam semel…","timeToRead":1,"featured":null,"thumbnailText":null,"date":"April 16, 2019","category":{"__typename":"CategoriesJson","id":"88b5aa8d-2061-5291-9f39-54966b1f60e5","name":"Case Studies","slug":"/category/case-studies/","color":null,"icon":"/static/1de85bbd781531b61bf5a25b83d72d32/case-studies.svg"},"author":{"__typename":"AuthorsJson","id":"6093709b-a119-5b0f-9743-9b9bb17a7b56","name":"Jane Smith","slug":"/author/jane-smith/","title":"Creative Designer","description":"Sed commodo, est quis maximus fermentum, massa ipsum euismod neque, in varius risus tellus quis lacus. Sed ac bibendum odio.","skills":["UI/UX","Javascript","Graphic Design"],"social":[{"name":"Github","url":"https://github.com/github"},{"name":"Twitter","url":"https://twitter.com/twitter"},{"name":"Website","url":"https://example.com"}],"thumbnail":{"__typename":"ImageSharp","regular":{"width":150,"height":150,"src":"/static/41bc1caf29080d62bd156256ffb0cd6a/97df7/jane-smith.png","srcSet":"/static/41bc1caf29080d62bd156256ffb0cd6a/97df7/jane-smith.png 1x,\n/static/41bc1caf29080d62bd156256ffb0cd6a/81b80/jane-smith.png 1.5x,\n/static/41bc1caf29080d62bd156256ffb0cd6a/bb938/jane-smith.png 2x"}}},"thumbnail":{"__typename":"ImageSharp","vertical":{"src":"/static/52d1fc7acfad39551744e434d7e83c71/8f7be/image.jpg","srcSet":"/static/52d1fc7acfad39551744e434d7e83c71/8f7be/image.jpg 1x,\n/static/52d1fc7acfad39551744e434d7e83c71/1af80/image.jpg 1.5x,\n/static/52d1fc7acfad39551744e434d7e83c71/1acf6/image.jpg 2x","srcWebp":"/static/52d1fc7acfad39551744e434d7e83c71/03323/image.webp","srcSetWebp":"/static/52d1fc7acfad39551744e434d7e83c71/03323/image.webp 1x,\n/static/52d1fc7acfad39551744e434d7e83c71/c8e9c/image.webp 1.5x,\n/static/52d1fc7acfad39551744e434d7e83c71/e7f4c/image.webp 2x","width":380,"height":290},"hero":{"src":"/static/52d1fc7acfad39551744e434d7e83c71/a8483/image.jpg","srcSet":"/static/52d1fc7acfad39551744e434d7e83c71/a8483/image.jpg 1x","srcWebp":"/static/52d1fc7acfad39551744e434d7e83c71/7330c/image.webp","srcSetWebp":"/static/52d1fc7acfad39551744e434d7e83c71/7330c/image.webp 1x","width":1600,"height":650}}}],"pageInfo":{"pageCount":2,"hasPreviousPage":true,"hasNextPage":false,"currentPage":2},"totalCount":10}},"pageContext":{"slug":"/category/case-studies/","limit":6,"skip":6,"collectionType":"category","paginatePostsPage":true,"basePath":"/","services":{"algolia":true,"mailchimp":true,"disqus":true},"siteUrl":"//flexiblog-personal.web.app","mobileMenu":{"title":"Topics","items":[{"name":"Advertising","slug":"/category/advertising/"},{"name":"Case Studies","slug":"/category/case-studies/"},{"name":"Innovation","slug":"/category/innovation/"}]}}},"staticQueryHashes":["618338068","620128445","620128445"]}