{"componentChunkName":"component---packages-blog-core-src-templates-collection-tag-js","path":"/tag/business/","result":{"data":{"collectionInfo":{"id":"5ea748d6-7ed1-5b49-9732-2a99970da407","name":"#business","slug":"/tag/business/"},"posts":{"nodes":[{"__typename":"MdxArticleProxy","id":"88dd8264-c6ac-5477-89cc-685e9631ffcd","title":"A Marketer’s Guide to Price Comparison Websites","slug":"/a-marketers-guide-to-price-comparison-websites/","link":null,"excerpt":"Lorem markdownum suarum successibus Auram illud. Aqua exegit silvae exiguam\ntempli, cui linquit…","timeToRead":1,"featured":null,"thumbnailText":null,"date":"April 16, 2019","category":{"__typename":"CategoriesJson","id":"0efa9e76-e8be-5cf7-b2de-7a1d2d806084","name":"Advertising","slug":"/category/advertising/","color":null,"icon":"/static/93c9c75517e1a6e95deaecabf3d1d050/advertising.svg"},"author":{"__typename":"AuthorsJson","id":"6093709b-a119-5b0f-9743-9b9bb17a7b56","name":"Jane Smith","slug":"/author/jane-smith/","title":"Creative Designer","description":"Sed commodo, est quis maximus fermentum, massa ipsum euismod neque, in varius risus tellus quis lacus. Sed ac bibendum odio.","skills":["UI/UX","Javascript","Graphic Design"],"social":[{"name":"Github","url":"https://github.com/github"},{"name":"Twitter","url":"https://twitter.com/twitter"},{"name":"Website","url":"https://example.com"}],"thumbnail":{"__typename":"ImageSharp","regular":{"width":150,"height":150,"src":"/static/41bc1caf29080d62bd156256ffb0cd6a/97df7/jane-smith.png","srcSet":"/static/41bc1caf29080d62bd156256ffb0cd6a/97df7/jane-smith.png 1x,\n/static/41bc1caf29080d62bd156256ffb0cd6a/81b80/jane-smith.png 1.5x,\n/static/41bc1caf29080d62bd156256ffb0cd6a/bb938/jane-smith.png 2x"}}},"thumbnail":{"__typename":"ImageSharp","vertical":{"src":"/static/9c7ba411a547ca3314d874d779b9f462/8f7be/image.jpg","srcSet":"/static/9c7ba411a547ca3314d874d779b9f462/8f7be/image.jpg 1x,\n/static/9c7ba411a547ca3314d874d779b9f462/1af80/image.jpg 1.5x,\n/static/9c7ba411a547ca3314d874d779b9f462/1acf6/image.jpg 2x","srcWebp":"/static/9c7ba411a547ca3314d874d779b9f462/03323/image.webp","srcSetWebp":"/static/9c7ba411a547ca3314d874d779b9f462/03323/image.webp 1x,\n/static/9c7ba411a547ca3314d874d779b9f462/c8e9c/image.webp 1.5x,\n/static/9c7ba411a547ca3314d874d779b9f462/e7f4c/image.webp 2x","width":380,"height":290},"hero":{"src":"/static/9c7ba411a547ca3314d874d779b9f462/a8483/image.jpg","srcSet":"/static/9c7ba411a547ca3314d874d779b9f462/a8483/image.jpg 1x","srcWebp":"/static/9c7ba411a547ca3314d874d779b9f462/7330c/image.webp","srcSetWebp":"/static/9c7ba411a547ca3314d874d779b9f462/7330c/image.webp 1x","width":1600,"height":650}}},{"__typename":"MdxArticleProxy","id":"81f5190b-0984-5124-bc20-5ba825c9e672","title":"Four ways to unlock the true power of TV through programmatic","slug":"/four-ways-to-unlock-the-true-power-of-tv-through-programmatic/","link":null,"excerpt":"Dona curvo sub evertere quam ultimus aridus Lorem markdownum , sub tecumque, posceret revertar…","timeToRead":1,"featured":null,"thumbnailText":null,"date":"April 16, 2019","category":{"__typename":"CategoriesJson","id":"0efa9e76-e8be-5cf7-b2de-7a1d2d806084","name":"Advertising","slug":"/category/advertising/","color":null,"icon":"/static/93c9c75517e1a6e95deaecabf3d1d050/advertising.svg"},"author":{"__typename":"AuthorsJson","id":"6093709b-a119-5b0f-9743-9b9bb17a7b56","name":"Jane Smith","slug":"/author/jane-smith/","title":"Creative Designer","description":"Sed commodo, est quis maximus fermentum, massa ipsum euismod neque, in varius risus tellus quis lacus. Sed ac bibendum odio.","skills":["UI/UX","Javascript","Graphic Design"],"social":[{"name":"Github","url":"https://github.com/github"},{"name":"Twitter","url":"https://twitter.com/twitter"},{"name":"Website","url":"https://example.com"}],"thumbnail":{"__typename":"ImageSharp","regular":{"width":150,"height":150,"src":"/static/41bc1caf29080d62bd156256ffb0cd6a/97df7/jane-smith.png","srcSet":"/static/41bc1caf29080d62bd156256ffb0cd6a/97df7/jane-smith.png 1x,\n/static/41bc1caf29080d62bd156256ffb0cd6a/81b80/jane-smith.png 1.5x,\n/static/41bc1caf29080d62bd156256ffb0cd6a/bb938/jane-smith.png 2x"}}},"thumbnail":{"__typename":"ImageSharp","vertical":{"src":"/static/ae6079884611eb3916af3ad9702705a2/8f7be/image.jpg","srcSet":"/static/ae6079884611eb3916af3ad9702705a2/8f7be/image.jpg 1x,\n/static/ae6079884611eb3916af3ad9702705a2/1af80/image.jpg 1.5x,\n/static/ae6079884611eb3916af3ad9702705a2/1acf6/image.jpg 2x","srcWebp":"/static/ae6079884611eb3916af3ad9702705a2/03323/image.webp","srcSetWebp":"/static/ae6079884611eb3916af3ad9702705a2/03323/image.webp 1x,\n/static/ae6079884611eb3916af3ad9702705a2/c8e9c/image.webp 1.5x,\n/static/ae6079884611eb3916af3ad9702705a2/e7f4c/image.webp 2x","width":380,"height":290},"hero":{"src":"/static/ae6079884611eb3916af3ad9702705a2/a8483/image.jpg","srcSet":"/static/ae6079884611eb3916af3ad9702705a2/a8483/image.jpg 1x","srcWebp":"/static/ae6079884611eb3916af3ad9702705a2/7330c/image.webp","srcSetWebp":"/static/ae6079884611eb3916af3ad9702705a2/7330c/image.webp 1x","width":1600,"height":650}}},{"__typename":"MdxArticleProxy","id":"ce6fb9d7-636e-5095-bbfb-81d5ee85193b","title":"An introduction to the third-party cookie crackdown","slug":"/an-introduction-to-the-third-party-cookie-crackdown/","link":null,"excerpt":"Primo in altis pelle alumnae Lorem markdownum obvius in seque opus, est bicorni forte; laeva…","timeToRead":1,"featured":null,"thumbnailText":null,"date":"April 16, 2019","category":{"__typename":"CategoriesJson","id":"0efa9e76-e8be-5cf7-b2de-7a1d2d806084","name":"Advertising","slug":"/category/advertising/","color":null,"icon":"/static/93c9c75517e1a6e95deaecabf3d1d050/advertising.svg"},"author":{"__typename":"AuthorsJson","id":"6093709b-a119-5b0f-9743-9b9bb17a7b56","name":"Jane Smith","slug":"/author/jane-smith/","title":"Creative Designer","description":"Sed commodo, est quis maximus fermentum, massa ipsum euismod neque, in varius risus tellus quis lacus. Sed ac bibendum odio.","skills":["UI/UX","Javascript","Graphic Design"],"social":[{"name":"Github","url":"https://github.com/github"},{"name":"Twitter","url":"https://twitter.com/twitter"},{"name":"Website","url":"https://example.com"}],"thumbnail":{"__typename":"ImageSharp","regular":{"width":150,"height":150,"src":"/static/41bc1caf29080d62bd156256ffb0cd6a/97df7/jane-smith.png","srcSet":"/static/41bc1caf29080d62bd156256ffb0cd6a/97df7/jane-smith.png 1x,\n/static/41bc1caf29080d62bd156256ffb0cd6a/81b80/jane-smith.png 1.5x,\n/static/41bc1caf29080d62bd156256ffb0cd6a/bb938/jane-smith.png 2x"}}},"thumbnail":{"__typename":"ImageSharp","vertical":{"src":"/static/d26d38bc3b4f390d1fb445ded2771158/8f7be/image.jpg","srcSet":"/static/d26d38bc3b4f390d1fb445ded2771158/8f7be/image.jpg 1x,\n/static/d26d38bc3b4f390d1fb445ded2771158/1af80/image.jpg 1.5x,\n/static/d26d38bc3b4f390d1fb445ded2771158/1acf6/image.jpg 2x","srcWebp":"/static/d26d38bc3b4f390d1fb445ded2771158/03323/image.webp","srcSetWebp":"/static/d26d38bc3b4f390d1fb445ded2771158/03323/image.webp 1x,\n/static/d26d38bc3b4f390d1fb445ded2771158/c8e9c/image.webp 1.5x,\n/static/d26d38bc3b4f390d1fb445ded2771158/e7f4c/image.webp 2x","width":380,"height":290},"hero":{"src":"/static/d26d38bc3b4f390d1fb445ded2771158/a8483/image.jpg","srcSet":"/static/d26d38bc3b4f390d1fb445ded2771158/a8483/image.jpg 1x","srcWebp":"/static/d26d38bc3b4f390d1fb445ded2771158/7330c/image.webp","srcSetWebp":"/static/d26d38bc3b4f390d1fb445ded2771158/7330c/image.webp 1x","width":1600,"height":650}}},{"__typename":"MdxArticleProxy","id":"e0c0edbc-f98e-564b-9b75-c6b573613a41","title":"Getting to Grips with Digital Advertising Best Practice Guide","slug":"/getting-to-grips-with-digital-advertising-best-practice-guide/","link":null,"excerpt":"Lorem markdownum transitque nondum, Peliaeque at poterat exegit, urbis quo;\ntibi. Cursus mecum adit…","timeToRead":1,"featured":null,"thumbnailText":null,"date":"April 16, 2019","category":{"__typename":"CategoriesJson","id":"0efa9e76-e8be-5cf7-b2de-7a1d2d806084","name":"Advertising","slug":"/category/advertising/","color":null,"icon":"/static/93c9c75517e1a6e95deaecabf3d1d050/advertising.svg"},"author":{"__typename":"AuthorsJson","id":"6093709b-a119-5b0f-9743-9b9bb17a7b56","name":"Jane Smith","slug":"/author/jane-smith/","title":"Creative Designer","description":"Sed commodo, est quis maximus fermentum, massa ipsum euismod neque, in varius risus tellus quis lacus. Sed ac bibendum odio.","skills":["UI/UX","Javascript","Graphic Design"],"social":[{"name":"Github","url":"https://github.com/github"},{"name":"Twitter","url":"https://twitter.com/twitter"},{"name":"Website","url":"https://example.com"}],"thumbnail":{"__typename":"ImageSharp","regular":{"width":150,"height":150,"src":"/static/41bc1caf29080d62bd156256ffb0cd6a/97df7/jane-smith.png","srcSet":"/static/41bc1caf29080d62bd156256ffb0cd6a/97df7/jane-smith.png 1x,\n/static/41bc1caf29080d62bd156256ffb0cd6a/81b80/jane-smith.png 1.5x,\n/static/41bc1caf29080d62bd156256ffb0cd6a/bb938/jane-smith.png 2x"}}},"thumbnail":{"__typename":"ImageSharp","vertical":{"src":"/static/b9a0a4d6c7b242fc0a7c2483f9da7d08/8f7be/image.jpg","srcSet":"/static/b9a0a4d6c7b242fc0a7c2483f9da7d08/8f7be/image.jpg 1x,\n/static/b9a0a4d6c7b242fc0a7c2483f9da7d08/1af80/image.jpg 1.5x,\n/static/b9a0a4d6c7b242fc0a7c2483f9da7d08/1acf6/image.jpg 2x","srcWebp":"/static/b9a0a4d6c7b242fc0a7c2483f9da7d08/03323/image.webp","srcSetWebp":"/static/b9a0a4d6c7b242fc0a7c2483f9da7d08/03323/image.webp 1x,\n/static/b9a0a4d6c7b242fc0a7c2483f9da7d08/c8e9c/image.webp 1.5x,\n/static/b9a0a4d6c7b242fc0a7c2483f9da7d08/e7f4c/image.webp 2x","width":380,"height":290},"hero":{"src":"/static/b9a0a4d6c7b242fc0a7c2483f9da7d08/a8483/image.jpg","srcSet":"/static/b9a0a4d6c7b242fc0a7c2483f9da7d08/a8483/image.jpg 1x","srcWebp":"/static/b9a0a4d6c7b242fc0a7c2483f9da7d08/7330c/image.webp","srcSetWebp":"/static/b9a0a4d6c7b242fc0a7c2483f9da7d08/7330c/image.webp 1x","width":1600,"height":650}}},{"__typename":"MdxArticleProxy","id":"42b2ecd7-7a6c-53df-81e2-82001ed96bd1","title":"The Consultancy Vs. Agency Debate It’s All About Effectiveness","slug":"/the-consultancy-vs-agency-debate-its-all-about-effectiveness/","link":null,"excerpt":"Lorem markdownum illic venturi instructa nobis Echidnae,  cum  quid magna\nfatebor. Levat placetque…","timeToRead":1,"featured":null,"thumbnailText":null,"date":"April 16, 2019","category":{"__typename":"CategoriesJson","id":"0efa9e76-e8be-5cf7-b2de-7a1d2d806084","name":"Advertising","slug":"/category/advertising/","color":null,"icon":"/static/93c9c75517e1a6e95deaecabf3d1d050/advertising.svg"},"author":{"__typename":"AuthorsJson","id":"6093709b-a119-5b0f-9743-9b9bb17a7b56","name":"Jane Smith","slug":"/author/jane-smith/","title":"Creative Designer","description":"Sed commodo, est quis maximus fermentum, massa ipsum euismod neque, in varius risus tellus quis lacus. Sed ac bibendum odio.","skills":["UI/UX","Javascript","Graphic Design"],"social":[{"name":"Github","url":"https://github.com/github"},{"name":"Twitter","url":"https://twitter.com/twitter"},{"name":"Website","url":"https://example.com"}],"thumbnail":{"__typename":"ImageSharp","regular":{"width":150,"height":150,"src":"/static/41bc1caf29080d62bd156256ffb0cd6a/97df7/jane-smith.png","srcSet":"/static/41bc1caf29080d62bd156256ffb0cd6a/97df7/jane-smith.png 1x,\n/static/41bc1caf29080d62bd156256ffb0cd6a/81b80/jane-smith.png 1.5x,\n/static/41bc1caf29080d62bd156256ffb0cd6a/bb938/jane-smith.png 2x"}}},"thumbnail":{"__typename":"ImageSharp","vertical":{"src":"/static/8d6037031b2aa1a9de00bb1c724d4c31/8f7be/image.jpg","srcSet":"/static/8d6037031b2aa1a9de00bb1c724d4c31/8f7be/image.jpg 1x,\n/static/8d6037031b2aa1a9de00bb1c724d4c31/1af80/image.jpg 1.5x,\n/static/8d6037031b2aa1a9de00bb1c724d4c31/1acf6/image.jpg 2x","srcWebp":"/static/8d6037031b2aa1a9de00bb1c724d4c31/03323/image.webp","srcSetWebp":"/static/8d6037031b2aa1a9de00bb1c724d4c31/03323/image.webp 1x,\n/static/8d6037031b2aa1a9de00bb1c724d4c31/c8e9c/image.webp 1.5x,\n/static/8d6037031b2aa1a9de00bb1c724d4c31/e7f4c/image.webp 2x","width":380,"height":290},"hero":{"src":"/static/8d6037031b2aa1a9de00bb1c724d4c31/a8483/image.jpg","srcSet":"/static/8d6037031b2aa1a9de00bb1c724d4c31/a8483/image.jpg 1x","srcWebp":"/static/8d6037031b2aa1a9de00bb1c724d4c31/7330c/image.webp","srcSetWebp":"/static/8d6037031b2aa1a9de00bb1c724d4c31/7330c/image.webp 1x","width":1600,"height":650}}},{"__typename":"MdxArticleProxy","id":"4ca59c9d-9f0c-5598-963a-a93a189e8bb0","title":"The Best Digital Marketing Stats We’ve Seen This Week","slug":"/the-best-digital-marketing-stats-weve-seen-this-week/","link":null,"excerpt":"Dona curvo sub evertere quam ultimus aridus Lorem markdownum , sub tecumque, posceret revertar…","timeToRead":1,"featured":null,"thumbnailText":null,"date":"April 16, 2019","category":{"__typename":"CategoriesJson","id":"0efa9e76-e8be-5cf7-b2de-7a1d2d806084","name":"Advertising","slug":"/category/advertising/","color":null,"icon":"/static/93c9c75517e1a6e95deaecabf3d1d050/advertising.svg"},"author":{"__typename":"AuthorsJson","id":"6093709b-a119-5b0f-9743-9b9bb17a7b56","name":"Jane Smith","slug":"/author/jane-smith/","title":"Creative Designer","description":"Sed commodo, est quis maximus fermentum, massa ipsum euismod neque, in varius risus tellus quis lacus. Sed ac bibendum odio.","skills":["UI/UX","Javascript","Graphic Design"],"social":[{"name":"Github","url":"https://github.com/github"},{"name":"Twitter","url":"https://twitter.com/twitter"},{"name":"Website","url":"https://example.com"}],"thumbnail":{"__typename":"ImageSharp","regular":{"width":150,"height":150,"src":"/static/41bc1caf29080d62bd156256ffb0cd6a/97df7/jane-smith.png","srcSet":"/static/41bc1caf29080d62bd156256ffb0cd6a/97df7/jane-smith.png 1x,\n/static/41bc1caf29080d62bd156256ffb0cd6a/81b80/jane-smith.png 1.5x,\n/static/41bc1caf29080d62bd156256ffb0cd6a/bb938/jane-smith.png 2x"}}},"thumbnail":{"__typename":"ImageSharp","vertical":{"src":"/static/cf122026843732bb98a45911f3f55467/8f7be/image.jpg","srcSet":"/static/cf122026843732bb98a45911f3f55467/8f7be/image.jpg 1x,\n/static/cf122026843732bb98a45911f3f55467/1af80/image.jpg 1.5x,\n/static/cf122026843732bb98a45911f3f55467/1acf6/image.jpg 2x","srcWebp":"/static/cf122026843732bb98a45911f3f55467/03323/image.webp","srcSetWebp":"/static/cf122026843732bb98a45911f3f55467/03323/image.webp 1x,\n/static/cf122026843732bb98a45911f3f55467/c8e9c/image.webp 1.5x,\n/static/cf122026843732bb98a45911f3f55467/e7f4c/image.webp 2x","width":380,"height":290},"hero":{"src":"/static/cf122026843732bb98a45911f3f55467/a8483/image.jpg","srcSet":"/static/cf122026843732bb98a45911f3f55467/a8483/image.jpg 1x","srcWebp":"/static/cf122026843732bb98a45911f3f55467/7330c/image.webp","srcSetWebp":"/static/cf122026843732bb98a45911f3f55467/7330c/image.webp 1x","width":1600,"height":650}}}],"pageInfo":{"pageCount":5,"hasPreviousPage":false,"hasNextPage":true,"currentPage":1},"totalCount":29}},"pageContext":{"slug":"/tag/business/","limit":6,"skip":0,"collectionType":"tags","paginatePostsPage":true,"basePath":"/","services":{"algolia":true,"mailchimp":true,"disqus":true},"siteUrl":"//flexiblog-personal.web.app","mobileMenu":{"title":"Topics","items":[{"name":"Advertising","slug":"/category/advertising/"},{"name":"Case Studies","slug":"/category/case-studies/"},{"name":"Innovation","slug":"/category/innovation/"}]}}},"staticQueryHashes":["618338068","620128445","620128445"]}