{"componentChunkName":"component---packages-blog-core-src-templates-collection-tag-js","path":"/tag/business/page/2/","result":{"data":{"collectionInfo":{"id":"5ea748d6-7ed1-5b49-9732-2a99970da407","name":"#business","slug":"/tag/business/"},"posts":{"nodes":[{"__typename":"MdxArticleProxy","id":"faabb32a-2e5f-5322-8cbc-08b7b9e28784","title":"The Power Of Native Advertising For Travel Brands","slug":"/the-power-of-native-advertising-for-travel-brands/","link":null,"excerpt":"Lorem markdownum illic venturi instructa nobis Echidnae,  cum  quid magna\nfatebor. Levat placetque…","timeToRead":1,"featured":null,"thumbnailText":null,"date":"April 16, 2019","category":{"__typename":"CategoriesJson","id":"0efa9e76-e8be-5cf7-b2de-7a1d2d806084","name":"Advertising","slug":"/category/advertising/","color":null,"icon":"/static/93c9c75517e1a6e95deaecabf3d1d050/advertising.svg"},"author":{"__typename":"AuthorsJson","id":"6093709b-a119-5b0f-9743-9b9bb17a7b56","name":"Jane Smith","slug":"/author/jane-smith/","title":"Creative Designer","description":"Sed commodo, est quis maximus fermentum, massa ipsum euismod neque, in varius risus tellus quis lacus. Sed ac bibendum odio.","skills":["UI/UX","Javascript","Graphic Design"],"social":[{"name":"Github","url":"https://github.com/github"},{"name":"Twitter","url":"https://twitter.com/twitter"},{"name":"Website","url":"https://example.com"}],"thumbnail":{"__typename":"ImageSharp","regular":{"width":150,"height":150,"src":"/static/41bc1caf29080d62bd156256ffb0cd6a/97df7/jane-smith.png","srcSet":"/static/41bc1caf29080d62bd156256ffb0cd6a/97df7/jane-smith.png 1x,\n/static/41bc1caf29080d62bd156256ffb0cd6a/81b80/jane-smith.png 1.5x,\n/static/41bc1caf29080d62bd156256ffb0cd6a/bb938/jane-smith.png 2x"}}},"thumbnail":{"__typename":"ImageSharp","vertical":{"src":"/static/bcfb9825410cf4e61df3de2674326634/8f7be/image.jpg","srcSet":"/static/bcfb9825410cf4e61df3de2674326634/8f7be/image.jpg 1x,\n/static/bcfb9825410cf4e61df3de2674326634/1af80/image.jpg 1.5x,\n/static/bcfb9825410cf4e61df3de2674326634/1acf6/image.jpg 2x","srcWebp":"/static/bcfb9825410cf4e61df3de2674326634/03323/image.webp","srcSetWebp":"/static/bcfb9825410cf4e61df3de2674326634/03323/image.webp 1x,\n/static/bcfb9825410cf4e61df3de2674326634/c8e9c/image.webp 1.5x,\n/static/bcfb9825410cf4e61df3de2674326634/e7f4c/image.webp 2x","width":380,"height":290},"hero":{"src":"/static/bcfb9825410cf4e61df3de2674326634/a8483/image.jpg","srcSet":"/static/bcfb9825410cf4e61df3de2674326634/a8483/image.jpg 1x","srcWebp":"/static/bcfb9825410cf4e61df3de2674326634/7330c/image.webp","srcSetWebp":"/static/bcfb9825410cf4e61df3de2674326634/7330c/image.webp 1x","width":1600,"height":650}}},{"__typename":"MdxArticleProxy","id":"5958e61e-8f70-556e-98d4-5bbc1545ed0b","title":"The Rise Of Programmatic Outdoor What Advertisers Need To Know","slug":"/the-rise-of-programmatic-outdoor-what-advertisers-need-to-know/","link":null,"excerpt":"Primo in altis pelle alumnae Lorem markdownum obvius in seque opus, est bicorni forte; laeva…","timeToRead":1,"featured":null,"thumbnailText":null,"date":"April 16, 2019","category":{"__typename":"CategoriesJson","id":"0efa9e76-e8be-5cf7-b2de-7a1d2d806084","name":"Advertising","slug":"/category/advertising/","color":null,"icon":"/static/93c9c75517e1a6e95deaecabf3d1d050/advertising.svg"},"author":{"__typename":"AuthorsJson","id":"6093709b-a119-5b0f-9743-9b9bb17a7b56","name":"Jane Smith","slug":"/author/jane-smith/","title":"Creative Designer","description":"Sed commodo, est quis maximus fermentum, massa ipsum euismod neque, in varius risus tellus quis lacus. Sed ac bibendum odio.","skills":["UI/UX","Javascript","Graphic Design"],"social":[{"name":"Github","url":"https://github.com/github"},{"name":"Twitter","url":"https://twitter.com/twitter"},{"name":"Website","url":"https://example.com"}],"thumbnail":{"__typename":"ImageSharp","regular":{"width":150,"height":150,"src":"/static/41bc1caf29080d62bd156256ffb0cd6a/97df7/jane-smith.png","srcSet":"/static/41bc1caf29080d62bd156256ffb0cd6a/97df7/jane-smith.png 1x,\n/static/41bc1caf29080d62bd156256ffb0cd6a/81b80/jane-smith.png 1.5x,\n/static/41bc1caf29080d62bd156256ffb0cd6a/bb938/jane-smith.png 2x"}}},"thumbnail":{"__typename":"ImageSharp","vertical":{"src":"/static/c6d67d65b0f0ea9d83e2f7891da251cb/8f7be/image.jpg","srcSet":"/static/c6d67d65b0f0ea9d83e2f7891da251cb/8f7be/image.jpg 1x,\n/static/c6d67d65b0f0ea9d83e2f7891da251cb/1af80/image.jpg 1.5x,\n/static/c6d67d65b0f0ea9d83e2f7891da251cb/1acf6/image.jpg 2x","srcWebp":"/static/c6d67d65b0f0ea9d83e2f7891da251cb/03323/image.webp","srcSetWebp":"/static/c6d67d65b0f0ea9d83e2f7891da251cb/03323/image.webp 1x,\n/static/c6d67d65b0f0ea9d83e2f7891da251cb/c8e9c/image.webp 1.5x,\n/static/c6d67d65b0f0ea9d83e2f7891da251cb/e7f4c/image.webp 2x","width":380,"height":290},"hero":{"src":"/static/c6d67d65b0f0ea9d83e2f7891da251cb/a8483/image.jpg","srcSet":"/static/c6d67d65b0f0ea9d83e2f7891da251cb/a8483/image.jpg 1x","srcWebp":"/static/c6d67d65b0f0ea9d83e2f7891da251cb/7330c/image.webp","srcSetWebp":"/static/c6d67d65b0f0ea9d83e2f7891da251cb/7330c/image.webp 1x","width":1600,"height":650}}},{"__typename":"MdxArticleProxy","id":"aae34042-79bd-5797-840f-73b4be278d1b","title":"Top Social Media Platforms Overview","slug":"/top-social-media-platforms-overview/","link":null,"excerpt":"Lorem markdownum transitque nondum, Peliaeque at poterat exegit, urbis quo;\ntibi. Cursus mecum adit…","timeToRead":1,"featured":null,"thumbnailText":null,"date":"April 16, 2019","category":{"__typename":"CategoriesJson","id":"0efa9e76-e8be-5cf7-b2de-7a1d2d806084","name":"Advertising","slug":"/category/advertising/","color":null,"icon":"/static/93c9c75517e1a6e95deaecabf3d1d050/advertising.svg"},"author":{"__typename":"AuthorsJson","id":"6093709b-a119-5b0f-9743-9b9bb17a7b56","name":"Jane Smith","slug":"/author/jane-smith/","title":"Creative Designer","description":"Sed commodo, est quis maximus fermentum, massa ipsum euismod neque, in varius risus tellus quis lacus. Sed ac bibendum odio.","skills":["UI/UX","Javascript","Graphic Design"],"social":[{"name":"Github","url":"https://github.com/github"},{"name":"Twitter","url":"https://twitter.com/twitter"},{"name":"Website","url":"https://example.com"}],"thumbnail":{"__typename":"ImageSharp","regular":{"width":150,"height":150,"src":"/static/41bc1caf29080d62bd156256ffb0cd6a/97df7/jane-smith.png","srcSet":"/static/41bc1caf29080d62bd156256ffb0cd6a/97df7/jane-smith.png 1x,\n/static/41bc1caf29080d62bd156256ffb0cd6a/81b80/jane-smith.png 1.5x,\n/static/41bc1caf29080d62bd156256ffb0cd6a/bb938/jane-smith.png 2x"}}},"thumbnail":{"__typename":"ImageSharp","vertical":{"src":"/static/39850f9740ad8c5d4298a7c686ceb7b4/8f7be/image.jpg","srcSet":"/static/39850f9740ad8c5d4298a7c686ceb7b4/8f7be/image.jpg 1x,\n/static/39850f9740ad8c5d4298a7c686ceb7b4/1af80/image.jpg 1.5x,\n/static/39850f9740ad8c5d4298a7c686ceb7b4/1acf6/image.jpg 2x","srcWebp":"/static/39850f9740ad8c5d4298a7c686ceb7b4/03323/image.webp","srcSetWebp":"/static/39850f9740ad8c5d4298a7c686ceb7b4/03323/image.webp 1x,\n/static/39850f9740ad8c5d4298a7c686ceb7b4/c8e9c/image.webp 1.5x,\n/static/39850f9740ad8c5d4298a7c686ceb7b4/e7f4c/image.webp 2x","width":380,"height":290},"hero":{"src":"/static/39850f9740ad8c5d4298a7c686ceb7b4/2ce54/image.jpg","srcSet":"/static/39850f9740ad8c5d4298a7c686ceb7b4/2ce54/image.jpg 1x","srcWebp":"/static/39850f9740ad8c5d4298a7c686ceb7b4/56eb0/image.webp","srcSetWebp":"/static/39850f9740ad8c5d4298a7c686ceb7b4/56eb0/image.webp 1x","width":1567,"height":637}}},{"__typename":"MdxArticleProxy","id":"7710c002-162d-5f7f-b0ef-c9a5c9dd3a7e","title":"What Is Reactive Marketing? And Which Brands Do It Well?","slug":"/what-is-reactive-marketing-and-which-brands-do-it-well/","link":null,"excerpt":"Lorem markdownum illic venturi instructa nobis Echidnae,  cum  quid magna\nfatebor. Levat placetque…","timeToRead":1,"featured":null,"thumbnailText":null,"date":"April 16, 2019","category":{"__typename":"CategoriesJson","id":"0efa9e76-e8be-5cf7-b2de-7a1d2d806084","name":"Advertising","slug":"/category/advertising/","color":null,"icon":"/static/93c9c75517e1a6e95deaecabf3d1d050/advertising.svg"},"author":{"__typename":"AuthorsJson","id":"6093709b-a119-5b0f-9743-9b9bb17a7b56","name":"Jane Smith","slug":"/author/jane-smith/","title":"Creative Designer","description":"Sed commodo, est quis maximus fermentum, massa ipsum euismod neque, in varius risus tellus quis lacus. Sed ac bibendum odio.","skills":["UI/UX","Javascript","Graphic Design"],"social":[{"name":"Github","url":"https://github.com/github"},{"name":"Twitter","url":"https://twitter.com/twitter"},{"name":"Website","url":"https://example.com"}],"thumbnail":{"__typename":"ImageSharp","regular":{"width":150,"height":150,"src":"/static/41bc1caf29080d62bd156256ffb0cd6a/97df7/jane-smith.png","srcSet":"/static/41bc1caf29080d62bd156256ffb0cd6a/97df7/jane-smith.png 1x,\n/static/41bc1caf29080d62bd156256ffb0cd6a/81b80/jane-smith.png 1.5x,\n/static/41bc1caf29080d62bd156256ffb0cd6a/bb938/jane-smith.png 2x"}}},"thumbnail":{"__typename":"ImageSharp","vertical":{"src":"/static/d50da1b73eaed20a719d02757e069d5a/8f7be/image.jpg","srcSet":"/static/d50da1b73eaed20a719d02757e069d5a/8f7be/image.jpg 1x,\n/static/d50da1b73eaed20a719d02757e069d5a/1af80/image.jpg 1.5x,\n/static/d50da1b73eaed20a719d02757e069d5a/1acf6/image.jpg 2x","srcWebp":"/static/d50da1b73eaed20a719d02757e069d5a/03323/image.webp","srcSetWebp":"/static/d50da1b73eaed20a719d02757e069d5a/03323/image.webp 1x,\n/static/d50da1b73eaed20a719d02757e069d5a/c8e9c/image.webp 1.5x,\n/static/d50da1b73eaed20a719d02757e069d5a/e7f4c/image.webp 2x","width":380,"height":290},"hero":{"src":"/static/d50da1b73eaed20a719d02757e069d5a/a8483/image.jpg","srcSet":"/static/d50da1b73eaed20a719d02757e069d5a/a8483/image.jpg 1x","srcWebp":"/static/d50da1b73eaed20a719d02757e069d5a/7330c/image.webp","srcSetWebp":"/static/d50da1b73eaed20a719d02757e069d5a/7330c/image.webp 1x","width":1600,"height":650}}},{"__typename":"MdxArticleProxy","id":"d1f5459e-3770-57b8-b36b-22e58051bd92","title":"Broadcaster Saves Hours of Admin with Innovative Digital Audio Solution","slug":"/broadcaster-saves-hours-of-admin-with-innovative-digital-audio-solution/","link":null,"excerpt":"Lorem markdownum illic venturi instructa nobis Echidnae,  cum  quid magna\nfatebor. Levat placetque…","timeToRead":1,"featured":null,"thumbnailText":null,"date":"April 16, 2019","category":{"__typename":"CategoriesJson","id":"88b5aa8d-2061-5291-9f39-54966b1f60e5","name":"Case Studies","slug":"/category/case-studies/","color":null,"icon":"/static/1de85bbd781531b61bf5a25b83d72d32/case-studies.svg"},"author":{"__typename":"AuthorsJson","id":"6093709b-a119-5b0f-9743-9b9bb17a7b56","name":"Jane Smith","slug":"/author/jane-smith/","title":"Creative Designer","description":"Sed commodo, est quis maximus fermentum, massa ipsum euismod neque, in varius risus tellus quis lacus. Sed ac bibendum odio.","skills":["UI/UX","Javascript","Graphic Design"],"social":[{"name":"Github","url":"https://github.com/github"},{"name":"Twitter","url":"https://twitter.com/twitter"},{"name":"Website","url":"https://example.com"}],"thumbnail":{"__typename":"ImageSharp","regular":{"width":150,"height":150,"src":"/static/41bc1caf29080d62bd156256ffb0cd6a/97df7/jane-smith.png","srcSet":"/static/41bc1caf29080d62bd156256ffb0cd6a/97df7/jane-smith.png 1x,\n/static/41bc1caf29080d62bd156256ffb0cd6a/81b80/jane-smith.png 1.5x,\n/static/41bc1caf29080d62bd156256ffb0cd6a/bb938/jane-smith.png 2x"}}},"thumbnail":{"__typename":"ImageSharp","vertical":{"src":"/static/788678319c3e4fb03f21e9cf13954fa7/8f7be/image.jpg","srcSet":"/static/788678319c3e4fb03f21e9cf13954fa7/8f7be/image.jpg 1x,\n/static/788678319c3e4fb03f21e9cf13954fa7/1af80/image.jpg 1.5x,\n/static/788678319c3e4fb03f21e9cf13954fa7/1acf6/image.jpg 2x","srcWebp":"/static/788678319c3e4fb03f21e9cf13954fa7/03323/image.webp","srcSetWebp":"/static/788678319c3e4fb03f21e9cf13954fa7/03323/image.webp 1x,\n/static/788678319c3e4fb03f21e9cf13954fa7/c8e9c/image.webp 1.5x,\n/static/788678319c3e4fb03f21e9cf13954fa7/e7f4c/image.webp 2x","width":380,"height":290},"hero":{"src":"/static/788678319c3e4fb03f21e9cf13954fa7/a8483/image.jpg","srcSet":"/static/788678319c3e4fb03f21e9cf13954fa7/a8483/image.jpg 1x","srcWebp":"/static/788678319c3e4fb03f21e9cf13954fa7/7330c/image.webp","srcSetWebp":"/static/788678319c3e4fb03f21e9cf13954fa7/7330c/image.webp 1x","width":1600,"height":650}}},{"__typename":"MdxArticleProxy","id":"641f25d5-9e1c-5e48-a6b0-673d0b4588ea","title":"Branding Agency Replaced Ten Tools With Just One","slug":"/branding-agency-replaced-ten-tools-with-just-one/","link":null,"excerpt":"Me clausere Erigonen ego Lorem markdownum sustineant oscula caespite ad gratia motus silvis…","timeToRead":1,"featured":true,"thumbnailText":null,"date":"April 16, 2019","category":{"__typename":"CategoriesJson","id":"88b5aa8d-2061-5291-9f39-54966b1f60e5","name":"Case Studies","slug":"/category/case-studies/","color":null,"icon":"/static/1de85bbd781531b61bf5a25b83d72d32/case-studies.svg"},"author":{"__typename":"AuthorsJson","id":"6093709b-a119-5b0f-9743-9b9bb17a7b56","name":"Jane Smith","slug":"/author/jane-smith/","title":"Creative Designer","description":"Sed commodo, est quis maximus fermentum, massa ipsum euismod neque, in varius risus tellus quis lacus. Sed ac bibendum odio.","skills":["UI/UX","Javascript","Graphic Design"],"social":[{"name":"Github","url":"https://github.com/github"},{"name":"Twitter","url":"https://twitter.com/twitter"},{"name":"Website","url":"https://example.com"}],"thumbnail":{"__typename":"ImageSharp","regular":{"width":150,"height":150,"src":"/static/41bc1caf29080d62bd156256ffb0cd6a/97df7/jane-smith.png","srcSet":"/static/41bc1caf29080d62bd156256ffb0cd6a/97df7/jane-smith.png 1x,\n/static/41bc1caf29080d62bd156256ffb0cd6a/81b80/jane-smith.png 1.5x,\n/static/41bc1caf29080d62bd156256ffb0cd6a/bb938/jane-smith.png 2x"}}},"thumbnail":{"__typename":"ImageSharp","vertical":{"src":"/static/7415bab1032f4058ce976272400c5e1b/8f7be/image.jpg","srcSet":"/static/7415bab1032f4058ce976272400c5e1b/8f7be/image.jpg 1x,\n/static/7415bab1032f4058ce976272400c5e1b/1af80/image.jpg 1.5x,\n/static/7415bab1032f4058ce976272400c5e1b/1acf6/image.jpg 2x","srcWebp":"/static/7415bab1032f4058ce976272400c5e1b/03323/image.webp","srcSetWebp":"/static/7415bab1032f4058ce976272400c5e1b/03323/image.webp 1x,\n/static/7415bab1032f4058ce976272400c5e1b/c8e9c/image.webp 1.5x,\n/static/7415bab1032f4058ce976272400c5e1b/e7f4c/image.webp 2x","width":380,"height":290},"hero":{"src":"/static/7415bab1032f4058ce976272400c5e1b/a8483/image.jpg","srcSet":"/static/7415bab1032f4058ce976272400c5e1b/a8483/image.jpg 1x","srcWebp":"/static/7415bab1032f4058ce976272400c5e1b/7330c/image.webp","srcSetWebp":"/static/7415bab1032f4058ce976272400c5e1b/7330c/image.webp 1x","width":1600,"height":650}}}],"pageInfo":{"pageCount":5,"hasPreviousPage":true,"hasNextPage":true,"currentPage":2},"totalCount":29}},"pageContext":{"slug":"/tag/business/","limit":6,"skip":6,"collectionType":"tags","paginatePostsPage":true,"basePath":"/","services":{"algolia":true,"mailchimp":true,"disqus":true},"siteUrl":"//flexiblog-personal.web.app","mobileMenu":{"title":"Topics","items":[{"name":"Advertising","slug":"/category/advertising/"},{"name":"Case Studies","slug":"/category/case-studies/"},{"name":"Innovation","slug":"/category/innovation/"}]}}},"staticQueryHashes":["618338068","620128445","620128445"]}